<svg width="354" height="237" viewBox="0 0 354 237" fill="none" xmlns="http://www.w3.org/2000/svg">
<rect width="354" height="237" rx="30" fill="#F5F5F5"/>
<path d="M152.044 110.438C152.044 110.858 151.96 111.227 151.792 111.544C151.624 111.861 151.391 112.127 151.092 112.342C150.803 112.557 150.462 112.72 150.07 112.832C149.687 112.944 149.277 113 148.838 113H144.036V103.06H149.356C149.701 103.06 150.014 103.135 150.294 103.284C150.574 103.433 150.812 103.629 151.008 103.872C151.204 104.105 151.353 104.376 151.456 104.684C151.568 104.983 151.624 105.286 151.624 105.594C151.624 106.079 151.503 106.537 151.26 106.966C151.017 107.386 150.663 107.699 150.196 107.904C150.765 108.072 151.213 108.375 151.54 108.814C151.876 109.243 152.044 109.785 152.044 110.438ZM150.098 110.074C150.098 109.897 150.065 109.729 150 109.57C149.944 109.402 149.865 109.257 149.762 109.136C149.659 109.015 149.538 108.921 149.398 108.856C149.258 108.781 149.104 108.744 148.936 108.744H145.968V111.362H148.838C149.015 111.362 149.179 111.329 149.328 111.264C149.487 111.199 149.622 111.11 149.734 110.998C149.846 110.877 149.935 110.737 150 110.578C150.065 110.419 150.098 110.251 150.098 110.074ZM145.968 104.712V107.218H148.544C148.871 107.218 149.146 107.106 149.37 106.882C149.603 106.658 149.72 106.35 149.72 105.958C149.72 105.575 149.613 105.272 149.398 105.048C149.193 104.824 148.936 104.712 148.628 104.712H145.968ZM157.738 107.288C157.168 107.297 156.66 107.409 156.212 107.624C155.764 107.829 155.442 108.142 155.246 108.562V113H153.37V105.664H155.092V107.232C155.222 106.98 155.376 106.756 155.554 106.56C155.731 106.355 155.922 106.177 156.128 106.028C156.333 105.879 156.538 105.767 156.744 105.692C156.958 105.608 157.164 105.566 157.36 105.566C157.462 105.566 157.537 105.566 157.584 105.566C157.64 105.566 157.691 105.571 157.738 105.58V107.288ZM158.784 113V105.664H160.66V113H158.784ZM158.784 104.642V102.78H160.66V104.642H158.784ZM169.17 113H167.294V108.884C167.294 108.296 167.191 107.867 166.986 107.596C166.781 107.325 166.496 107.19 166.132 107.19C165.945 107.19 165.754 107.227 165.558 107.302C165.362 107.377 165.175 107.484 164.998 107.624C164.83 107.755 164.676 107.913 164.536 108.1C164.396 108.287 164.293 108.492 164.228 108.716V113H162.352V105.664H164.046V107.022C164.317 106.555 164.709 106.191 165.222 105.93C165.735 105.669 166.314 105.538 166.958 105.538C167.415 105.538 167.789 105.622 168.078 105.79C168.367 105.958 168.591 106.177 168.75 106.448C168.909 106.719 169.016 107.027 169.072 107.372C169.137 107.717 169.17 108.067 169.17 108.422V113ZM173.839 113.14C173.335 113.14 172.869 113.042 172.439 112.846C172.01 112.65 171.641 112.379 171.333 112.034C171.025 111.689 170.783 111.287 170.605 110.83C170.437 110.363 170.353 109.864 170.353 109.332C170.353 108.8 170.433 108.305 170.591 107.848C170.759 107.391 170.988 106.989 171.277 106.644C171.567 106.299 171.912 106.028 172.313 105.832C172.715 105.636 173.153 105.538 173.629 105.538C174.171 105.538 174.656 105.669 175.085 105.93C175.524 106.191 175.865 106.532 176.107 106.952V102.78H177.983V110.844C177.983 111.04 178.016 111.18 178.081 111.264C178.147 111.348 178.259 111.395 178.417 111.404V113C178.091 113.065 177.825 113.098 177.619 113.098C177.283 113.098 177.008 113.014 176.793 112.846C176.579 112.678 176.457 112.459 176.429 112.188L176.387 111.726C176.117 112.193 175.748 112.547 175.281 112.79C174.824 113.023 174.343 113.14 173.839 113.14ZM174.329 111.544C174.507 111.544 174.689 111.516 174.875 111.46C175.062 111.395 175.235 111.306 175.393 111.194C175.552 111.082 175.692 110.951 175.813 110.802C175.944 110.653 176.042 110.489 176.107 110.312V108.562C176.033 108.357 175.925 108.17 175.785 108.002C175.655 107.825 175.501 107.675 175.323 107.554C175.155 107.423 174.973 107.321 174.777 107.246C174.591 107.171 174.404 107.134 174.217 107.134C173.937 107.134 173.676 107.195 173.433 107.316C173.2 107.437 172.999 107.605 172.831 107.82C172.663 108.025 172.533 108.263 172.439 108.534C172.346 108.805 172.299 109.085 172.299 109.374C172.299 109.682 172.351 109.967 172.453 110.228C172.556 110.489 172.696 110.718 172.873 110.914C173.051 111.11 173.261 111.264 173.503 111.376C173.755 111.488 174.031 111.544 174.329 111.544ZM183.213 113.14C182.615 113.14 182.079 113.037 181.603 112.832C181.127 112.627 180.721 112.351 180.385 112.006C180.058 111.651 179.806 111.245 179.629 110.788C179.451 110.331 179.363 109.85 179.363 109.346C179.363 108.833 179.451 108.347 179.629 107.89C179.806 107.433 180.058 107.031 180.385 106.686C180.721 106.331 181.127 106.051 181.603 105.846C182.079 105.641 182.615 105.538 183.213 105.538C183.81 105.538 184.342 105.641 184.809 105.846C185.285 106.051 185.686 106.331 186.013 106.686C186.349 107.031 186.605 107.433 186.783 107.89C186.96 108.347 187.049 108.833 187.049 109.346C187.049 109.85 186.96 110.331 186.783 110.788C186.605 111.245 186.353 111.651 186.027 112.006C185.7 112.351 185.299 112.627 184.823 112.832C184.347 113.037 183.81 113.14 183.213 113.14ZM181.295 109.346C181.295 109.673 181.341 109.971 181.435 110.242C181.537 110.503 181.673 110.732 181.841 110.928C182.018 111.124 182.223 111.278 182.457 111.39C182.69 111.493 182.942 111.544 183.213 111.544C183.483 111.544 183.735 111.493 183.969 111.39C184.202 111.278 184.403 111.124 184.571 110.928C184.748 110.732 184.883 110.499 184.977 110.228C185.079 109.957 185.131 109.659 185.131 109.332C185.131 109.015 185.079 108.721 184.977 108.45C184.883 108.179 184.748 107.946 184.571 107.75C184.403 107.554 184.202 107.405 183.969 107.302C183.735 107.19 183.483 107.134 183.213 107.134C182.942 107.134 182.69 107.19 182.457 107.302C182.223 107.414 182.018 107.568 181.841 107.764C181.673 107.96 181.537 108.193 181.435 108.464C181.341 108.735 181.295 109.029 181.295 109.346ZM194.45 113.14C193.834 113.14 193.232 113.042 192.644 112.846C192.056 112.65 191.552 112.37 191.132 112.006L191.832 110.83C192.28 111.147 192.714 111.39 193.134 111.558C193.564 111.717 193.988 111.796 194.408 111.796C194.782 111.796 195.076 111.726 195.29 111.586C195.505 111.446 195.612 111.245 195.612 110.984C195.612 110.723 195.486 110.531 195.234 110.41C194.982 110.289 194.572 110.149 194.002 109.99C193.526 109.859 193.12 109.733 192.784 109.612C192.448 109.491 192.178 109.355 191.972 109.206C191.767 109.047 191.618 108.87 191.524 108.674C191.431 108.469 191.384 108.226 191.384 107.946C191.384 107.573 191.454 107.237 191.594 106.938C191.744 106.639 191.949 106.387 192.21 106.182C192.472 105.967 192.775 105.804 193.12 105.692C193.475 105.58 193.858 105.524 194.268 105.524C194.819 105.524 195.332 105.603 195.808 105.762C196.294 105.921 196.737 106.177 197.138 106.532L196.382 107.666C196.009 107.386 195.645 107.181 195.29 107.05C194.945 106.919 194.6 106.854 194.254 106.854C193.937 106.854 193.671 106.919 193.456 107.05C193.242 107.181 193.134 107.391 193.134 107.68C193.134 107.811 193.158 107.918 193.204 108.002C193.26 108.086 193.344 108.161 193.456 108.226C193.568 108.291 193.713 108.357 193.89 108.422C194.077 108.478 194.306 108.539 194.576 108.604C195.08 108.735 195.51 108.865 195.864 108.996C196.228 109.127 196.522 109.276 196.746 109.444C196.98 109.612 197.148 109.808 197.25 110.032C197.362 110.247 197.418 110.508 197.418 110.816C197.418 111.535 197.152 112.104 196.62 112.524C196.088 112.935 195.365 113.14 194.45 113.14ZM202.039 113.14C201.451 113.14 200.919 113.042 200.443 112.846C199.967 112.641 199.561 112.365 199.225 112.02C198.889 111.675 198.628 111.273 198.441 110.816C198.264 110.359 198.175 109.878 198.175 109.374C198.175 108.851 198.264 108.361 198.441 107.904C198.619 107.437 198.875 107.031 199.211 106.686C199.547 106.331 199.953 106.051 200.429 105.846C200.915 105.641 201.456 105.538 202.053 105.538C202.651 105.538 203.183 105.641 203.649 105.846C204.125 106.051 204.527 106.327 204.853 106.672C205.189 107.017 205.441 107.419 205.609 107.876C205.787 108.333 205.875 108.809 205.875 109.304C205.875 109.425 205.871 109.542 205.861 109.654C205.861 109.766 205.852 109.859 205.833 109.934H200.163C200.191 110.223 200.261 110.48 200.373 110.704C200.485 110.928 200.63 111.119 200.807 111.278C200.985 111.437 201.185 111.558 201.409 111.642C201.633 111.726 201.867 111.768 202.109 111.768C202.483 111.768 202.833 111.679 203.159 111.502C203.495 111.315 203.724 111.073 203.845 110.774L205.455 111.222C205.185 111.782 204.751 112.244 204.153 112.608C203.565 112.963 202.861 113.14 202.039 113.14ZM203.943 108.716C203.897 108.165 203.691 107.727 203.327 107.4C202.973 107.064 202.539 106.896 202.025 106.896C201.773 106.896 201.535 106.943 201.311 107.036C201.097 107.12 200.905 107.241 200.737 107.4C200.569 107.559 200.429 107.75 200.317 107.974C200.215 108.198 200.154 108.445 200.135 108.716H203.943ZM209.79 113.14C209.174 113.14 208.572 113.042 207.984 112.846C207.396 112.65 206.892 112.37 206.472 112.006L207.172 110.83C207.62 111.147 208.054 111.39 208.474 111.558C208.903 111.717 209.328 111.796 209.748 111.796C210.121 111.796 210.415 111.726 210.63 111.586C210.845 111.446 210.952 111.245 210.952 110.984C210.952 110.723 210.826 110.531 210.574 110.41C210.322 110.289 209.911 110.149 209.342 109.99C208.866 109.859 208.46 109.733 208.124 109.612C207.788 109.491 207.517 109.355 207.312 109.206C207.107 109.047 206.957 108.87 206.864 108.674C206.771 108.469 206.724 108.226 206.724 107.946C206.724 107.573 206.794 107.237 206.934 106.938C207.083 106.639 207.289 106.387 207.55 106.182C207.811 105.967 208.115 105.804 208.46 105.692C208.815 105.58 209.197 105.524 209.608 105.524C210.159 105.524 210.672 105.603 211.148 105.762C211.633 105.921 212.077 106.177 212.478 106.532L211.722 107.666C211.349 107.386 210.985 107.181 210.63 107.05C210.285 106.919 209.939 106.854 209.594 106.854C209.277 106.854 209.011 106.919 208.796 107.05C208.581 107.181 208.474 107.391 208.474 107.68C208.474 107.811 208.497 107.918 208.544 108.002C208.6 108.086 208.684 108.161 208.796 108.226C208.908 108.291 209.053 108.357 209.23 108.422C209.417 108.478 209.645 108.539 209.916 108.604C210.42 108.735 210.849 108.865 211.204 108.996C211.568 109.127 211.862 109.276 212.086 109.444C212.319 109.612 212.487 109.808 212.59 110.032C212.702 110.247 212.758 110.508 212.758 110.816C212.758 111.535 212.492 112.104 211.96 112.524C211.428 112.935 210.705 113.14 209.79 113.14ZM213.977 113V105.664H215.853V113H213.977ZM213.977 104.642V102.78H215.853V104.642H213.977ZM220.933 113.14C220.336 113.14 219.799 113.037 219.323 112.832C218.847 112.627 218.441 112.351 218.105 112.006C217.779 111.651 217.527 111.245 217.349 110.788C217.172 110.331 217.083 109.85 217.083 109.346C217.083 108.833 217.172 108.347 217.349 107.89C217.527 107.433 217.779 107.031 218.105 106.686C218.441 106.331 218.847 106.051 219.323 105.846C219.799 105.641 220.336 105.538 220.933 105.538C221.531 105.538 222.063 105.641 222.529 105.846C223.005 106.051 223.407 106.331 223.733 106.686C224.069 107.031 224.326 107.433 224.503 107.89C224.681 108.347 224.769 108.833 224.769 109.346C224.769 109.85 224.681 110.331 224.503 110.788C224.326 111.245 224.074 111.651 223.747 112.006C223.421 112.351 223.019 112.627 222.543 112.832C222.067 113.037 221.531 113.14 220.933 113.14ZM219.015 109.346C219.015 109.673 219.062 109.971 219.155 110.242C219.258 110.503 219.393 110.732 219.561 110.928C219.739 111.124 219.944 111.278 220.177 111.39C220.411 111.493 220.663 111.544 220.933 111.544C221.204 111.544 221.456 111.493 221.689 111.39C221.923 111.278 222.123 111.124 222.291 110.928C222.469 110.732 222.604 110.499 222.697 110.228C222.8 109.957 222.851 109.659 222.851 109.332C222.851 109.015 222.8 108.721 222.697 108.45C222.604 108.179 222.469 107.946 222.291 107.75C222.123 107.554 221.923 107.405 221.689 107.302C221.456 107.19 221.204 107.134 220.933 107.134C220.663 107.134 220.411 107.19 220.177 107.302C219.944 107.414 219.739 107.568 219.561 107.764C219.393 107.96 219.258 108.193 219.155 108.464C219.062 108.735 219.015 109.029 219.015 109.346ZM232.854 113H230.978V108.884C230.978 108.296 230.875 107.867 230.67 107.596C230.464 107.325 230.18 107.19 229.816 107.19C229.629 107.19 229.438 107.227 229.242 107.302C229.046 107.377 228.859 107.484 228.682 107.624C228.514 107.755 228.36 107.913 228.22 108.1C228.08 108.287 227.977 108.492 227.912 108.716V113H226.036V105.664H227.73V107.022C228 106.555 228.392 106.191 228.906 105.93C229.419 105.669 229.998 105.538 230.642 105.538C231.099 105.538 231.472 105.622 231.762 105.79C232.051 105.958 232.275 106.177 232.434 106.448C232.592 106.719 232.7 107.027 232.756 107.372C232.821 107.717 232.854 108.067 232.854 108.422V113ZM237.887 113.14C237.299 113.14 236.767 113.042 236.291 112.846C235.815 112.641 235.409 112.365 235.073 112.02C234.737 111.675 234.476 111.273 234.289 110.816C234.112 110.359 234.023 109.878 234.023 109.374C234.023 108.851 234.112 108.361 234.289 107.904C234.466 107.437 234.723 107.031 235.059 106.686C235.395 106.331 235.801 106.051 236.277 105.846C236.762 105.641 237.304 105.538 237.901 105.538C238.498 105.538 239.03 105.641 239.497 105.846C239.973 106.051 240.374 106.327 240.701 106.672C241.037 107.017 241.289 107.419 241.457 107.876C241.634 108.333 241.723 108.809 241.723 109.304C241.723 109.425 241.718 109.542 241.709 109.654C241.709 109.766 241.7 109.859 241.681 109.934H236.011C236.039 110.223 236.109 110.48 236.221 110.704C236.333 110.928 236.478 111.119 236.655 111.278C236.832 111.437 237.033 111.558 237.257 111.642C237.481 111.726 237.714 111.768 237.957 111.768C238.33 111.768 238.68 111.679 239.007 111.502C239.343 111.315 239.572 111.073 239.693 110.774L241.303 111.222C241.032 111.782 240.598 112.244 240.001 112.608C239.413 112.963 238.708 113.14 237.887 113.14ZM239.791 108.716C239.744 108.165 239.539 107.727 239.175 107.4C238.82 107.064 238.386 106.896 237.873 106.896C237.621 106.896 237.383 106.943 237.159 107.036C236.944 107.12 236.753 107.241 236.585 107.4C236.417 107.559 236.277 107.75 236.165 107.974C236.062 108.198 236.002 108.445 235.983 108.716H239.791ZM245.638 113.14C245.022 113.14 244.42 113.042 243.832 112.846C243.244 112.65 242.74 112.37 242.32 112.006L243.02 110.83C243.468 111.147 243.902 111.39 244.322 111.558C244.751 111.717 245.176 111.796 245.596 111.796C245.969 111.796 246.263 111.726 246.478 111.586C246.692 111.446 246.8 111.245 246.8 110.984C246.8 110.723 246.674 110.531 246.422 110.41C246.17 110.289 245.759 110.149 245.19 109.99C244.714 109.859 244.308 109.733 243.972 109.612C243.636 109.491 243.365 109.355 243.16 109.206C242.954 109.047 242.805 108.87 242.712 108.674C242.618 108.469 242.572 108.226 242.572 107.946C242.572 107.573 242.642 107.237 242.782 106.938C242.931 106.639 243.136 106.387 243.398 106.182C243.659 105.967 243.962 105.804 244.308 105.692C244.662 105.58 245.045 105.524 245.456 105.524C246.006 105.524 246.52 105.603 246.996 105.762C247.481 105.921 247.924 106.177 248.326 106.532L247.57 107.666C247.196 107.386 246.832 107.181 246.478 107.05C246.132 106.919 245.787 106.854 245.442 106.854C245.124 106.854 244.858 106.919 244.644 107.05C244.429 107.181 244.322 107.391 244.322 107.68C244.322 107.811 244.345 107.918 244.392 108.002C244.448 108.086 244.532 108.161 244.644 108.226C244.756 108.291 244.9 108.357 245.078 108.422C245.264 108.478 245.493 108.539 245.764 108.604C246.268 108.735 246.697 108.865 247.052 108.996C247.416 109.127 247.71 109.276 247.934 109.444C248.167 109.612 248.335 109.808 248.438 110.032C248.55 110.247 248.606 110.508 248.606 110.816C248.606 111.535 248.34 112.104 247.808 112.524C247.276 112.935 246.552 113.14 245.638 113.14ZM256.59 113.14C256.002 113.14 255.47 113.042 254.994 112.846C254.518 112.641 254.112 112.365 253.776 112.02C253.44 111.675 253.179 111.273 252.992 110.816C252.815 110.359 252.726 109.878 252.726 109.374C252.726 108.851 252.815 108.361 252.992 107.904C253.169 107.437 253.426 107.031 253.762 106.686C254.098 106.331 254.504 106.051 254.98 105.846C255.465 105.641 256.007 105.538 256.604 105.538C257.201 105.538 257.733 105.641 258.2 105.846C258.676 106.051 259.077 106.327 259.404 106.672C259.74 107.017 259.992 107.419 260.16 107.876C260.337 108.333 260.426 108.809 260.426 109.304C260.426 109.425 260.421 109.542 260.412 109.654C260.412 109.766 260.403 109.859 260.384 109.934H254.714C254.742 110.223 254.812 110.48 254.924 110.704C255.036 110.928 255.181 111.119 255.358 111.278C255.535 111.437 255.736 111.558 255.96 111.642C256.184 111.726 256.417 111.768 256.66 111.768C257.033 111.768 257.383 111.679 257.71 111.502C258.046 111.315 258.275 111.073 258.396 110.774L260.006 111.222C259.735 111.782 259.301 112.244 258.704 112.608C258.116 112.963 257.411 113.14 256.59 113.14ZM258.494 108.716C258.447 108.165 258.242 107.727 257.878 107.4C257.523 107.064 257.089 106.896 256.576 106.896C256.324 106.896 256.086 106.943 255.862 107.036C255.647 107.12 255.456 107.241 255.288 107.4C255.12 107.559 254.98 107.75 254.868 107.974C254.765 108.198 254.705 108.445 254.686 108.716H258.494ZM260.967 115.744C260.612 115.744 260.276 115.688 259.959 115.576C259.642 115.473 259.357 115.31 259.105 115.086L259.917 113.812C260.02 113.915 260.146 113.989 260.295 114.036C260.444 114.092 260.594 114.12 260.743 114.12C260.986 114.12 261.196 114.031 261.373 113.854C261.55 113.686 261.639 113.467 261.639 113.196V105.664H263.515V113.056C263.515 113.448 263.45 113.807 263.319 114.134C263.188 114.47 263.006 114.755 262.773 114.988C262.549 115.231 262.278 115.417 261.961 115.548C261.653 115.679 261.322 115.744 260.967 115.744ZM261.639 104.642V102.78H263.515V104.642H261.639ZM268.621 113.14C268.033 113.14 267.501 113.042 267.025 112.846C266.549 112.641 266.143 112.365 265.807 112.02C265.471 111.675 265.21 111.273 265.023 110.816C264.846 110.359 264.757 109.878 264.757 109.374C264.757 108.851 264.846 108.361 265.023 107.904C265.201 107.437 265.457 107.031 265.793 106.686C266.129 106.331 266.535 106.051 267.011 105.846C267.497 105.641 268.038 105.538 268.635 105.538C269.233 105.538 269.765 105.641 270.231 105.846C270.707 106.051 271.109 106.327 271.435 106.672C271.771 107.017 272.023 107.419 272.191 107.876C272.369 108.333 272.457 108.809 272.457 109.304C272.457 109.425 272.453 109.542 272.443 109.654C272.443 109.766 272.434 109.859 272.415 109.934H266.745C266.773 110.223 266.843 110.48 266.955 110.704C267.067 110.928 267.212 111.119 267.389 111.278C267.567 111.437 267.767 111.558 267.991 111.642C268.215 111.726 268.449 111.768 268.691 111.768C269.065 111.768 269.415 111.679 269.741 111.502C270.077 111.315 270.306 111.073 270.427 110.774L272.037 111.222C271.767 111.782 271.333 112.244 270.735 112.608C270.147 112.963 269.443 113.14 268.621 113.14ZM270.525 108.716C270.479 108.165 270.273 107.727 269.909 107.4C269.555 107.064 269.121 106.896 268.607 106.896C268.355 106.896 268.117 106.943 267.893 107.036C267.679 107.12 267.487 107.241 267.319 107.4C267.151 107.559 267.011 107.75 266.899 107.974C266.797 108.198 266.736 108.445 266.717 108.716H270.525ZM273.138 109.332C273.138 108.819 273.227 108.333 273.404 107.876C273.581 107.419 273.838 107.017 274.174 106.672C274.51 106.327 274.916 106.051 275.392 105.846C275.868 105.641 276.405 105.538 277.002 105.538C277.805 105.538 278.486 105.711 279.046 106.056C279.615 106.401 280.04 106.854 280.32 107.414L278.486 107.974C278.327 107.703 278.117 107.498 277.856 107.358C277.595 107.209 277.305 107.134 276.988 107.134C276.717 107.134 276.465 107.19 276.232 107.302C275.999 107.405 275.793 107.554 275.616 107.75C275.448 107.937 275.313 108.165 275.21 108.436C275.117 108.707 275.07 109.005 275.07 109.332C275.07 109.659 275.121 109.957 275.224 110.228C275.327 110.499 275.462 110.732 275.63 110.928C275.807 111.124 276.013 111.278 276.246 111.39C276.479 111.493 276.727 111.544 276.988 111.544C277.324 111.544 277.632 111.46 277.912 111.292C278.201 111.124 278.402 110.919 278.514 110.676L280.348 111.236C280.096 111.796 279.681 112.253 279.102 112.608C278.523 112.963 277.828 113.14 277.016 113.14C276.419 113.14 275.882 113.037 275.406 112.832C274.93 112.627 274.524 112.351 274.188 112.006C273.852 111.651 273.591 111.245 273.404 110.788C273.227 110.321 273.138 109.836 273.138 109.332ZM283.742 113.14C282.986 113.14 282.412 112.897 282.02 112.412C281.628 111.927 281.432 111.208 281.432 110.256V105.664H283.308V109.85C283.308 110.979 283.714 111.544 284.526 111.544C284.89 111.544 285.24 111.437 285.576 111.222C285.922 110.998 286.202 110.662 286.416 110.214V105.664H288.292V110.844C288.292 111.04 288.325 111.18 288.39 111.264C288.465 111.348 288.582 111.395 288.74 111.404V113C288.554 113.037 288.395 113.061 288.264 113.07C288.143 113.079 288.031 113.084 287.928 113.084C287.592 113.084 287.317 113.009 287.102 112.86C286.897 112.701 286.776 112.487 286.738 112.216L286.696 111.628C286.37 112.132 285.95 112.51 285.436 112.762C284.923 113.014 284.358 113.14 283.742 113.14ZM294.553 112.622C294.301 112.734 293.993 112.846 293.629 112.958C293.265 113.07 292.882 113.126 292.481 113.126C292.219 113.126 291.972 113.093 291.739 113.028C291.515 112.963 291.314 112.86 291.137 112.72C290.969 112.571 290.833 112.384 290.731 112.16C290.628 111.927 290.577 111.647 290.577 111.32V107.106H289.611V105.664H290.577V103.284H292.453V105.664H293.993V107.106H292.453V110.69C292.453 110.951 292.518 111.138 292.649 111.25C292.789 111.353 292.957 111.404 293.153 111.404C293.349 111.404 293.54 111.371 293.727 111.306C293.913 111.241 294.063 111.185 294.175 111.138L294.553 112.622ZM295.53 113V105.664H297.406V113H295.53ZM295.53 104.642V102.78H297.406V104.642H295.53ZM301.072 113L298.37 105.664H300.302L302.164 111.474L304.04 105.664H305.804L303.102 113H301.072ZM308.606 113.14C308.251 113.14 307.92 113.084 307.612 112.972C307.304 112.851 307.038 112.687 306.814 112.482C306.59 112.267 306.413 112.02 306.282 111.74C306.161 111.46 306.1 111.152 306.1 110.816C306.1 110.471 306.175 110.153 306.324 109.864C306.483 109.565 306.697 109.313 306.968 109.108C307.248 108.903 307.579 108.744 307.962 108.632C308.345 108.511 308.765 108.45 309.222 108.45C309.549 108.45 309.866 108.478 310.174 108.534C310.491 108.59 310.771 108.669 311.014 108.772V108.352C311.014 107.867 310.874 107.493 310.594 107.232C310.323 106.971 309.917 106.84 309.376 106.84C308.984 106.84 308.601 106.91 308.228 107.05C307.855 107.19 307.472 107.395 307.08 107.666L306.506 106.476C307.449 105.851 308.466 105.538 309.558 105.538C310.613 105.538 311.429 105.799 312.008 106.322C312.596 106.835 312.89 107.582 312.89 108.562V110.844C312.89 111.04 312.923 111.18 312.988 111.264C313.063 111.348 313.179 111.395 313.338 111.404V113C313.021 113.065 312.745 113.098 312.512 113.098C312.157 113.098 311.882 113.019 311.686 112.86C311.499 112.701 311.383 112.491 311.336 112.23L311.294 111.824C310.967 112.253 310.571 112.58 310.104 112.804C309.637 113.028 309.138 113.14 308.606 113.14ZM309.138 111.768C309.455 111.768 309.754 111.712 310.034 111.6C310.323 111.488 310.547 111.339 310.706 111.152C310.911 110.993 311.014 110.816 311.014 110.62V109.78C310.79 109.696 310.547 109.631 310.286 109.584C310.025 109.528 309.773 109.5 309.53 109.5C309.045 109.5 308.648 109.612 308.34 109.836C308.032 110.051 307.878 110.326 307.878 110.662C307.878 110.979 307.999 111.245 308.242 111.46C308.485 111.665 308.783 111.768 309.138 111.768ZM317.415 113.14C316.799 113.14 316.197 113.042 315.609 112.846C315.021 112.65 314.517 112.37 314.097 112.006L314.797 110.83C315.245 111.147 315.679 111.39 316.099 111.558C316.528 111.717 316.953 111.796 317.373 111.796C317.746 111.796 318.04 111.726 318.255 111.586C318.47 111.446 318.577 111.245 318.577 110.984C318.577 110.723 318.451 110.531 318.199 110.41C317.947 110.289 317.536 110.149 316.967 109.99C316.491 109.859 316.085 109.733 315.749 109.612C315.413 109.491 315.142 109.355 314.937 109.206C314.732 109.047 314.582 108.87 314.489 108.674C314.396 108.469 314.349 108.226 314.349 107.946C314.349 107.573 314.419 107.237 314.559 106.938C314.708 106.639 314.914 106.387 315.175 106.182C315.436 105.967 315.74 105.804 316.085 105.692C316.44 105.58 316.822 105.524 317.233 105.524C317.784 105.524 318.297 105.603 318.773 105.762C319.258 105.921 319.702 106.177 320.103 106.532L319.347 107.666C318.974 107.386 318.61 107.181 318.255 107.05C317.91 106.919 317.564 106.854 317.219 106.854C316.902 106.854 316.636 106.919 316.421 107.05C316.206 107.181 316.099 107.391 316.099 107.68C316.099 107.811 316.122 107.918 316.169 108.002C316.225 108.086 316.309 108.161 316.421 108.226C316.533 108.291 316.678 108.357 316.855 108.422C317.042 108.478 317.27 108.539 317.541 108.604C318.045 108.735 318.474 108.865 318.829 108.996C319.193 109.127 319.487 109.276 319.711 109.444C319.944 109.612 320.112 109.808 320.215 110.032C320.327 110.247 320.383 110.508 320.383 110.816C320.383 111.535 320.117 112.104 319.585 112.524C319.053 112.935 318.33 113.14 317.415 113.14ZM321.77 114.61L322.148 112.944H321.56V110.984H323.184V112.944L322.61 114.61H321.77ZM143.854 133V125.664H145.73V133H143.854ZM143.854 124.642V122.78H145.73V124.642H143.854ZM154.24 133H152.364V128.884C152.364 128.296 152.262 127.867 152.056 127.596C151.851 127.325 151.566 127.19 151.202 127.19C151.016 127.19 150.824 127.227 150.628 127.302C150.432 127.377 150.246 127.484 150.068 127.624C149.9 127.755 149.746 127.913 149.606 128.1C149.466 128.287 149.364 128.492 149.298 128.716V133H147.422V125.664H149.116V127.022C149.387 126.555 149.779 126.191 150.292 125.93C150.806 125.669 151.384 125.538 152.028 125.538C152.486 125.538 152.859 125.622 153.148 125.79C153.438 125.958 153.662 126.177 153.82 126.448C153.979 126.719 154.086 127.027 154.142 127.372C154.208 127.717 154.24 128.067 154.24 128.422V133ZM158.91 133.14C158.406 133.14 157.939 133.042 157.51 132.846C157.08 132.65 156.712 132.379 156.404 132.034C156.096 131.689 155.853 131.287 155.676 130.83C155.508 130.363 155.424 129.864 155.424 129.332C155.424 128.8 155.503 128.305 155.662 127.848C155.83 127.391 156.058 126.989 156.348 126.644C156.637 126.299 156.982 126.028 157.384 125.832C157.785 125.636 158.224 125.538 158.7 125.538C159.241 125.538 159.726 125.669 160.156 125.93C160.594 126.191 160.935 126.532 161.178 126.952V122.78H163.054V130.844C163.054 131.04 163.086 131.18 163.152 131.264C163.217 131.348 163.329 131.395 163.488 131.404V133C163.161 133.065 162.895 133.098 162.69 133.098C162.354 133.098 162.078 133.014 161.864 132.846C161.649 132.678 161.528 132.459 161.5 132.188L161.458 131.726C161.187 132.193 160.818 132.547 160.352 132.79C159.894 133.023 159.414 133.14 158.91 133.14ZM159.4 131.544C159.577 131.544 159.759 131.516 159.946 131.46C160.132 131.395 160.305 131.306 160.464 131.194C160.622 131.082 160.762 130.951 160.884 130.802C161.014 130.653 161.112 130.489 161.178 130.312V128.562C161.103 128.357 160.996 128.17 160.856 128.002C160.725 127.825 160.571 127.675 160.394 127.554C160.226 127.423 160.044 127.321 159.848 127.246C159.661 127.171 159.474 127.134 159.288 127.134C159.008 127.134 158.746 127.195 158.504 127.316C158.27 127.437 158.07 127.605 157.902 127.82C157.734 128.025 157.603 128.263 157.51 128.534C157.416 128.805 157.37 129.085 157.37 129.374C157.37 129.682 157.421 129.967 157.524 130.228C157.626 130.489 157.766 130.718 157.944 130.914C158.121 131.11 158.331 131.264 158.574 131.376C158.826 131.488 159.101 131.544 159.4 131.544ZM164.895 133V125.664H166.771V133H164.895ZM164.895 124.642V122.78H166.771V124.642H164.895ZM170.437 133L167.735 125.664H169.667L171.529 131.474L173.405 125.664H175.169L172.467 133H170.437ZM176.147 133V125.664H178.023V133H176.147ZM176.147 124.642V122.78H178.023V124.642H176.147ZM182.753 133.14C182.249 133.14 181.783 133.042 181.353 132.846C180.924 132.65 180.555 132.379 180.247 132.034C179.939 131.689 179.697 131.287 179.519 130.83C179.351 130.363 179.267 129.864 179.267 129.332C179.267 128.8 179.347 128.305 179.505 127.848C179.673 127.391 179.902 126.989 180.191 126.644C180.481 126.299 180.826 126.028 181.227 125.832C181.629 125.636 182.067 125.538 182.543 125.538C183.085 125.538 183.57 125.669 183.999 125.93C184.438 126.191 184.779 126.532 185.021 126.952V122.78H186.897V130.844C186.897 131.04 186.93 131.18 186.995 131.264C187.061 131.348 187.173 131.395 187.331 131.404V133C187.005 133.065 186.739 133.098 186.533 133.098C186.197 133.098 185.922 133.014 185.707 132.846C185.493 132.678 185.371 132.459 185.343 132.188L185.301 131.726C185.031 132.193 184.662 132.547 184.195 132.79C183.738 133.023 183.257 133.14 182.753 133.14ZM183.243 131.544C183.421 131.544 183.603 131.516 183.789 131.46C183.976 131.395 184.149 131.306 184.307 131.194C184.466 131.082 184.606 130.951 184.727 130.802C184.858 130.653 184.956 130.489 185.021 130.312V128.562C184.947 128.357 184.839 128.17 184.699 128.002C184.569 127.825 184.415 127.675 184.237 127.554C184.069 127.423 183.887 127.321 183.691 127.246C183.505 127.171 183.318 127.134 183.131 127.134C182.851 127.134 182.59 127.195 182.347 127.316C182.114 127.437 181.913 127.605 181.745 127.82C181.577 128.025 181.447 128.263 181.353 128.534C181.26 128.805 181.213 129.085 181.213 129.374C181.213 129.682 181.265 129.967 181.367 130.228C181.47 130.489 181.61 130.718 181.787 130.914C181.965 131.11 182.175 131.264 182.417 131.376C182.669 131.488 182.945 131.544 183.243 131.544ZM190.979 133.14C190.223 133.14 189.649 132.897 189.257 132.412C188.865 131.927 188.669 131.208 188.669 130.256V125.664H190.545V129.85C190.545 130.979 190.951 131.544 191.763 131.544C192.127 131.544 192.477 131.437 192.813 131.222C193.158 130.998 193.438 130.662 193.653 130.214V125.664H195.529V130.844C195.529 131.04 195.561 131.18 195.627 131.264C195.701 131.348 195.818 131.395 195.977 131.404V133C195.79 133.037 195.631 133.061 195.501 133.07C195.379 133.079 195.267 133.084 195.165 133.084C194.829 133.084 194.553 133.009 194.339 132.86C194.133 132.701 194.012 132.487 193.975 132.216L193.933 131.628C193.606 132.132 193.186 132.51 192.673 132.762C192.159 133.014 191.595 133.14 190.979 133.14ZM199.395 133.14C199.04 133.14 198.709 133.084 198.401 132.972C198.093 132.851 197.827 132.687 197.603 132.482C197.379 132.267 197.202 132.02 197.071 131.74C196.95 131.46 196.889 131.152 196.889 130.816C196.889 130.471 196.964 130.153 197.113 129.864C197.272 129.565 197.486 129.313 197.757 129.108C198.037 128.903 198.368 128.744 198.751 128.632C199.134 128.511 199.554 128.45 200.011 128.45C200.338 128.45 200.655 128.478 200.963 128.534C201.28 128.59 201.56 128.669 201.803 128.772V128.352C201.803 127.867 201.663 127.493 201.383 127.232C201.112 126.971 200.706 126.84 200.165 126.84C199.773 126.84 199.39 126.91 199.017 127.05C198.644 127.19 198.261 127.395 197.869 127.666L197.295 126.476C198.238 125.851 199.255 125.538 200.347 125.538C201.402 125.538 202.218 125.799 202.797 126.322C203.385 126.835 203.679 127.582 203.679 128.562V130.844C203.679 131.04 203.712 131.18 203.777 131.264C203.852 131.348 203.968 131.395 204.127 131.404V133C203.81 133.065 203.534 133.098 203.301 133.098C202.946 133.098 202.671 133.019 202.475 132.86C202.288 132.701 202.172 132.491 202.125 132.23L202.083 131.824C201.756 132.253 201.36 132.58 200.893 132.804C200.426 133.028 199.927 133.14 199.395 133.14ZM199.927 131.768C200.244 131.768 200.543 131.712 200.823 131.6C201.112 131.488 201.336 131.339 201.495 131.152C201.7 130.993 201.803 130.816 201.803 130.62V129.78C201.579 129.696 201.336 129.631 201.075 129.584C200.814 129.528 200.562 129.5 200.319 129.5C199.834 129.5 199.437 129.612 199.129 129.836C198.821 130.051 198.667 130.326 198.667 130.662C198.667 130.979 198.788 131.245 199.031 131.46C199.274 131.665 199.572 131.768 199.927 131.768ZM205.418 122.78H207.294V130.648C207.294 130.919 207.359 131.129 207.49 131.278C207.621 131.427 207.807 131.502 208.05 131.502C208.162 131.502 208.283 131.483 208.414 131.446C208.554 131.409 208.685 131.362 208.806 131.306L209.058 132.734C208.806 132.855 208.512 132.949 208.176 133.014C207.84 133.079 207.537 133.112 207.266 133.112C206.678 133.112 206.221 132.958 205.894 132.65C205.577 132.333 205.418 131.885 205.418 131.306V122.78ZM213.277 133.14C212.689 133.14 212.157 133.042 211.681 132.846C211.205 132.641 210.799 132.365 210.463 132.02C210.127 131.675 209.866 131.273 209.679 130.816C209.502 130.359 209.413 129.878 209.413 129.374C209.413 128.851 209.502 128.361 209.679 127.904C209.857 127.437 210.113 127.031 210.449 126.686C210.785 126.331 211.191 126.051 211.667 125.846C212.153 125.641 212.694 125.538 213.291 125.538C213.889 125.538 214.421 125.641 214.887 125.846C215.363 126.051 215.765 126.327 216.091 126.672C216.427 127.017 216.679 127.419 216.847 127.876C217.025 128.333 217.113 128.809 217.113 129.304C217.113 129.425 217.109 129.542 217.099 129.654C217.099 129.766 217.09 129.859 217.071 129.934H211.401C211.429 130.223 211.499 130.48 211.611 130.704C211.723 130.928 211.868 131.119 212.045 131.278C212.223 131.437 212.423 131.558 212.647 131.642C212.871 131.726 213.105 131.768 213.347 131.768C213.721 131.768 214.071 131.679 214.397 131.502C214.733 131.315 214.962 131.073 215.083 130.774L216.693 131.222C216.423 131.782 215.989 132.244 215.391 132.608C214.803 132.963 214.099 133.14 213.277 133.14ZM215.181 128.716C215.135 128.165 214.929 127.727 214.565 127.4C214.211 127.064 213.777 126.896 213.263 126.896C213.011 126.896 212.773 126.943 212.549 127.036C212.335 127.12 212.143 127.241 211.975 127.4C211.807 127.559 211.667 127.75 211.555 127.974C211.453 128.198 211.392 128.445 211.373 128.716H215.181ZM221.028 133.14C220.412 133.14 219.81 133.042 219.222 132.846C218.634 132.65 218.13 132.37 217.71 132.006L218.41 130.83C218.858 131.147 219.292 131.39 219.712 131.558C220.142 131.717 220.566 131.796 220.986 131.796C221.36 131.796 221.654 131.726 221.868 131.586C222.083 131.446 222.19 131.245 222.19 130.984C222.19 130.723 222.064 130.531 221.812 130.41C221.56 130.289 221.15 130.149 220.58 129.99C220.104 129.859 219.698 129.733 219.362 129.612C219.026 129.491 218.756 129.355 218.55 129.206C218.345 129.047 218.196 128.87 218.102 128.674C218.009 128.469 217.962 128.226 217.962 127.946C217.962 127.573 218.032 127.237 218.172 126.938C218.322 126.639 218.527 126.387 218.788 126.182C219.05 125.967 219.353 125.804 219.698 125.692C220.053 125.58 220.436 125.524 220.846 125.524C221.397 125.524 221.91 125.603 222.386 125.762C222.872 125.921 223.315 126.177 223.716 126.532L222.96 127.666C222.587 127.386 222.223 127.181 221.868 127.05C221.523 126.919 221.178 126.854 220.832 126.854C220.515 126.854 220.249 126.919 220.034 127.05C219.82 127.181 219.712 127.391 219.712 127.68C219.712 127.811 219.736 127.918 219.782 128.002C219.838 128.086 219.922 128.161 220.034 128.226C220.146 128.291 220.291 128.357 220.468 128.422C220.655 128.478 220.884 128.539 221.154 128.604C221.658 128.735 222.088 128.865 222.442 128.996C222.806 129.127 223.1 129.276 223.324 129.444C223.558 129.612 223.726 129.808 223.828 130.032C223.94 130.247 223.996 130.508 223.996 130.816C223.996 131.535 223.73 132.104 223.198 132.524C222.666 132.935 221.943 133.14 221.028 133.14ZM225.383 134.61L225.761 132.944H225.173V130.984H226.797V132.944L226.223 134.61H225.383ZM234.871 133.14C234.367 133.14 233.9 133.042 233.471 132.846C233.041 132.65 232.673 132.379 232.365 132.034C232.057 131.689 231.814 131.287 231.637 130.83C231.469 130.363 231.385 129.864 231.385 129.332C231.385 128.8 231.464 128.305 231.623 127.848C231.791 127.391 232.019 126.989 232.309 126.644C232.598 126.299 232.943 126.028 233.345 125.832C233.746 125.636 234.185 125.538 234.661 125.538C235.202 125.538 235.687 125.669 236.117 125.93C236.555 126.191 236.896 126.532 237.139 126.952V122.78H239.015V130.844C239.015 131.04 239.047 131.18 239.113 131.264C239.178 131.348 239.29 131.395 239.449 131.404V133C239.122 133.065 238.856 133.098 238.651 133.098C238.315 133.098 238.039 133.014 237.825 132.846C237.61 132.678 237.489 132.459 237.461 132.188L237.419 131.726C237.148 132.193 236.779 132.547 236.313 132.79C235.855 133.023 235.375 133.14 234.871 133.14ZM235.361 131.544C235.538 131.544 235.72 131.516 235.907 131.46C236.093 131.395 236.266 131.306 236.425 131.194C236.583 131.082 236.723 130.951 236.845 130.802C236.975 130.653 237.073 130.489 237.139 130.312V128.562C237.064 128.357 236.957 128.17 236.817 128.002C236.686 127.825 236.532 127.675 236.355 127.554C236.187 127.423 236.005 127.321 235.809 127.246C235.622 127.171 235.435 127.134 235.249 127.134C234.969 127.134 234.707 127.195 234.465 127.316C234.231 127.437 234.031 127.605 233.863 127.82C233.695 128.025 233.564 128.263 233.471 128.534C233.377 128.805 233.331 129.085 233.331 129.374C233.331 129.682 233.382 129.967 233.485 130.228C233.587 130.489 233.727 130.718 233.905 130.914C234.082 131.11 234.292 131.264 234.535 131.376C234.787 131.488 235.062 131.544 235.361 131.544ZM244.258 133.14C243.67 133.14 243.138 133.042 242.662 132.846C242.186 132.641 241.78 132.365 241.444 132.02C241.108 131.675 240.847 131.273 240.66 130.816C240.483 130.359 240.394 129.878 240.394 129.374C240.394 128.851 240.483 128.361 240.66 127.904C240.837 127.437 241.094 127.031 241.43 126.686C241.766 126.331 242.172 126.051 242.648 125.846C243.133 125.641 243.675 125.538 244.272 125.538C244.869 125.538 245.401 125.641 245.868 125.846C246.344 126.051 246.745 126.327 247.072 126.672C247.408 127.017 247.66 127.419 247.828 127.876C248.005 128.333 248.094 128.809 248.094 129.304C248.094 129.425 248.089 129.542 248.08 129.654C248.08 129.766 248.071 129.859 248.052 129.934H242.382C242.41 130.223 242.48 130.48 242.592 130.704C242.704 130.928 242.849 131.119 243.026 131.278C243.203 131.437 243.404 131.558 243.628 131.642C243.852 131.726 244.085 131.768 244.328 131.768C244.701 131.768 245.051 131.679 245.378 131.502C245.714 131.315 245.943 131.073 246.064 130.774L247.674 131.222C247.403 131.782 246.969 132.244 246.372 132.608C245.784 132.963 245.079 133.14 244.258 133.14ZM246.162 128.716C246.115 128.165 245.91 127.727 245.546 127.4C245.191 127.064 244.757 126.896 244.244 126.896C243.992 126.896 243.754 126.943 243.53 127.036C243.315 127.12 243.124 127.241 242.956 127.4C242.788 127.559 242.648 127.75 242.536 127.974C242.433 128.198 242.373 128.445 242.354 128.716H246.162ZM256.996 133.14C256.417 133.14 255.913 133.014 255.484 132.762C255.055 132.501 254.719 132.151 254.476 131.712V135.982H252.6V125.664H254.238V126.924C254.509 126.495 254.859 126.159 255.288 125.916C255.717 125.664 256.212 125.538 256.772 125.538C257.267 125.538 257.724 125.641 258.144 125.846C258.564 126.042 258.923 126.313 259.222 126.658C259.53 126.994 259.768 127.395 259.936 127.862C260.113 128.319 260.202 128.805 260.202 129.318C260.202 129.85 260.123 130.349 259.964 130.816C259.805 131.283 259.581 131.689 259.292 132.034C259.012 132.379 258.676 132.65 258.284 132.846C257.892 133.042 257.463 133.14 256.996 133.14ZM256.366 131.544C256.646 131.544 256.903 131.483 257.136 131.362C257.379 131.241 257.584 131.077 257.752 130.872C257.92 130.667 258.051 130.429 258.144 130.158C258.237 129.887 258.284 129.607 258.284 129.318C258.284 129.01 258.233 128.725 258.13 128.464C258.027 128.193 257.883 127.96 257.696 127.764C257.519 127.568 257.304 127.414 257.052 127.302C256.809 127.19 256.543 127.134 256.254 127.134C256.077 127.134 255.895 127.167 255.708 127.232C255.521 127.288 255.349 127.372 255.19 127.484C255.031 127.596 254.887 127.727 254.756 127.876C254.635 128.025 254.541 128.189 254.476 128.366V130.088C254.644 130.508 254.901 130.858 255.246 131.138C255.591 131.409 255.965 131.544 256.366 131.544ZM263.475 133.14C263.12 133.14 262.789 133.084 262.481 132.972C262.173 132.851 261.907 132.687 261.683 132.482C261.459 132.267 261.282 132.02 261.151 131.74C261.03 131.46 260.969 131.152 260.969 130.816C260.969 130.471 261.044 130.153 261.193 129.864C261.352 129.565 261.566 129.313 261.837 129.108C262.117 128.903 262.448 128.744 262.831 128.632C263.214 128.511 263.634 128.45 264.091 128.45C264.418 128.45 264.735 128.478 265.043 128.534C265.36 128.59 265.64 128.669 265.883 128.772V128.352C265.883 127.867 265.743 127.493 265.463 127.232C265.192 126.971 264.786 126.84 264.245 126.84C263.853 126.84 263.47 126.91 263.097 127.05C262.724 127.19 262.341 127.395 261.949 127.666L261.375 126.476C262.318 125.851 263.335 125.538 264.427 125.538C265.482 125.538 266.298 125.799 266.877 126.322C267.465 126.835 267.759 127.582 267.759 128.562V130.844C267.759 131.04 267.792 131.18 267.857 131.264C267.932 131.348 268.048 131.395 268.207 131.404V133C267.89 133.065 267.614 133.098 267.381 133.098C267.026 133.098 266.751 133.019 266.555 132.86C266.368 132.701 266.252 132.491 266.205 132.23L266.163 131.824C265.836 132.253 265.44 132.58 264.973 132.804C264.506 133.028 264.007 133.14 263.475 133.14ZM264.007 131.768C264.324 131.768 264.623 131.712 264.903 131.6C265.192 131.488 265.416 131.339 265.575 131.152C265.78 130.993 265.883 130.816 265.883 130.62V129.78C265.659 129.696 265.416 129.631 265.155 129.584C264.894 129.528 264.642 129.5 264.399 129.5C263.914 129.5 263.517 129.612 263.209 129.836C262.901 130.051 262.747 130.326 262.747 130.662C262.747 130.979 262.868 131.245 263.111 131.46C263.354 131.665 263.652 131.768 264.007 131.768ZM273.88 127.288C273.311 127.297 272.802 127.409 272.354 127.624C271.906 127.829 271.584 128.142 271.388 128.562V133H269.512V125.664H271.234V127.232C271.365 126.98 271.519 126.756 271.696 126.56C271.874 126.355 272.065 126.177 272.27 126.028C272.476 125.879 272.681 125.767 272.886 125.692C273.101 125.608 273.306 125.566 273.502 125.566C273.605 125.566 273.68 125.566 273.726 125.566C273.782 125.566 273.834 125.571 273.88 125.58V127.288ZM277.959 133.14C277.371 133.14 276.839 133.042 276.363 132.846C275.887 132.641 275.481 132.365 275.145 132.02C274.809 131.675 274.548 131.273 274.361 130.816C274.184 130.359 274.095 129.878 274.095 129.374C274.095 128.851 274.184 128.361 274.361 127.904C274.538 127.437 274.795 127.031 275.131 126.686C275.467 126.331 275.873 126.051 276.349 125.846C276.834 125.641 277.376 125.538 277.973 125.538C278.57 125.538 279.102 125.641 279.569 125.846C280.045 126.051 280.446 126.327 280.773 126.672C281.109 127.017 281.361 127.419 281.529 127.876C281.706 128.333 281.795 128.809 281.795 129.304C281.795 129.425 281.79 129.542 281.781 129.654C281.781 129.766 281.772 129.859 281.753 129.934H276.083C276.111 130.223 276.181 130.48 276.293 130.704C276.405 130.928 276.55 131.119 276.727 131.278C276.904 131.437 277.105 131.558 277.329 131.642C277.553 131.726 277.786 131.768 278.029 131.768C278.402 131.768 278.752 131.679 279.079 131.502C279.415 131.315 279.644 131.073 279.765 130.774L281.375 131.222C281.104 131.782 280.67 132.244 280.073 132.608C279.485 132.963 278.78 133.14 277.959 133.14ZM279.863 128.716C279.816 128.165 279.611 127.727 279.247 127.4C278.892 127.064 278.458 126.896 277.945 126.896C277.693 126.896 277.455 126.943 277.231 127.036C277.016 127.12 276.825 127.241 276.657 127.4C276.489 127.559 276.349 127.75 276.237 127.974C276.134 128.198 276.074 128.445 276.055 128.716H279.863ZM282.336 135.744C281.981 135.744 281.645 135.688 281.328 135.576C281.011 135.473 280.726 135.31 280.474 135.086L281.286 133.812C281.389 133.915 281.515 133.989 281.664 134.036C281.813 134.092 281.963 134.12 282.112 134.12C282.355 134.12 282.565 134.031 282.742 133.854C282.919 133.686 283.008 133.467 283.008 133.196V125.664H284.884V133.056C284.884 133.448 284.819 133.807 284.688 134.134C284.557 134.47 284.375 134.755 284.142 134.988C283.918 135.231 283.647 135.417 283.33 135.548C283.022 135.679 282.691 135.744 282.336 135.744ZM283.008 124.642V122.78H284.884V124.642H283.008ZM288.59 133.14C288.236 133.14 287.904 133.084 287.596 132.972C287.288 132.851 287.022 132.687 286.798 132.482C286.574 132.267 286.397 132.02 286.266 131.74C286.145 131.46 286.084 131.152 286.084 130.816C286.084 130.471 286.159 130.153 286.308 129.864C286.467 129.565 286.682 129.313 286.952 129.108C287.232 128.903 287.564 128.744 287.946 128.632C288.329 128.511 288.749 128.45 289.206 128.45C289.533 128.45 289.85 128.478 290.158 128.534C290.476 128.59 290.756 128.669 290.998 128.772V128.352C290.998 127.867 290.858 127.493 290.578 127.232C290.308 126.971 289.902 126.84 289.36 126.84C288.968 126.84 288.586 126.91 288.212 127.05C287.839 127.19 287.456 127.395 287.064 127.666L286.49 126.476C287.433 125.851 288.45 125.538 289.542 125.538C290.597 125.538 291.414 125.799 291.992 126.322C292.58 126.835 292.874 127.582 292.874 128.562V130.844C292.874 131.04 292.907 131.18 292.972 131.264C293.047 131.348 293.164 131.395 293.322 131.404V133C293.005 133.065 292.73 133.098 292.496 133.098C292.142 133.098 291.866 133.019 291.67 132.86C291.484 132.701 291.367 132.491 291.32 132.23L291.278 131.824C290.952 132.253 290.555 132.58 290.088 132.804C289.622 133.028 289.122 133.14 288.59 133.14ZM289.122 131.768C289.44 131.768 289.738 131.712 290.018 131.6C290.308 131.488 290.532 131.339 290.69 131.152C290.896 130.993 290.998 130.816 290.998 130.62V129.78C290.774 129.696 290.532 129.631 290.27 129.584C290.009 129.528 289.757 129.5 289.514 129.5C289.029 129.5 288.632 129.612 288.324 129.836C288.016 130.051 287.862 130.326 287.862 130.662C287.862 130.979 287.984 131.245 288.226 131.46C288.469 131.665 288.768 131.768 289.122 131.768ZM144.008 154.428C144.167 154.475 144.321 154.507 144.47 154.526C144.619 154.554 144.745 154.568 144.848 154.568C144.969 154.568 145.081 154.545 145.184 154.498C145.287 154.451 145.38 154.367 145.464 154.246C145.548 154.134 145.632 153.975 145.716 153.77C145.8 153.565 145.889 153.308 145.982 153L143.084 145.664H145.016L147.004 151.376L148.768 145.664H150.532L147.452 154.456C147.275 154.969 146.971 155.389 146.542 155.716C146.113 156.043 145.581 156.206 144.946 156.206C144.797 156.206 144.643 156.192 144.484 156.164C144.335 156.145 144.176 156.108 144.008 156.052V154.428ZM157.57 153.14C157.066 153.14 156.599 153.042 156.17 152.846C155.74 152.65 155.372 152.379 155.064 152.034C154.756 151.689 154.513 151.287 154.336 150.83C154.168 150.363 154.084 149.864 154.084 149.332C154.084 148.8 154.163 148.305 154.322 147.848C154.49 147.391 154.718 146.989 155.008 146.644C155.297 146.299 155.642 146.028 156.044 145.832C156.445 145.636 156.884 145.538 157.36 145.538C157.901 145.538 158.386 145.669 158.816 145.93C159.254 146.191 159.595 146.532 159.838 146.952V142.78H161.714V150.844C161.714 151.04 161.746 151.18 161.812 151.264C161.877 151.348 161.989 151.395 162.148 151.404V153C161.821 153.065 161.555 153.098 161.35 153.098C161.014 153.098 160.738 153.014 160.524 152.846C160.309 152.678 160.188 152.459 160.16 152.188L160.118 151.726C159.847 152.193 159.478 152.547 159.012 152.79C158.554 153.023 158.074 153.14 157.57 153.14ZM158.06 151.544C158.237 151.544 158.419 151.516 158.606 151.46C158.792 151.395 158.965 151.306 159.124 151.194C159.282 151.082 159.422 150.951 159.544 150.802C159.674 150.653 159.772 150.489 159.838 150.312V148.562C159.763 148.357 159.656 148.17 159.516 148.002C159.385 147.825 159.231 147.675 159.054 147.554C158.886 147.423 158.704 147.321 158.508 147.246C158.321 147.171 158.134 147.134 157.948 147.134C157.668 147.134 157.406 147.195 157.164 147.316C156.93 147.437 156.73 147.605 156.562 147.82C156.394 148.025 156.263 148.263 156.17 148.534C156.076 148.805 156.03 149.085 156.03 149.374C156.03 149.682 156.081 149.967 156.184 150.228C156.286 150.489 156.426 150.718 156.604 150.914C156.781 151.11 156.991 151.264 157.234 151.376C157.486 151.488 157.761 151.544 158.06 151.544ZM166.957 153.14C166.369 153.14 165.837 153.042 165.361 152.846C164.885 152.641 164.479 152.365 164.143 152.02C163.807 151.675 163.546 151.273 163.359 150.816C163.182 150.359 163.093 149.878 163.093 149.374C163.093 148.851 163.182 148.361 163.359 147.904C163.537 147.437 163.793 147.031 164.129 146.686C164.465 146.331 164.871 146.051 165.347 145.846C165.833 145.641 166.374 145.538 166.971 145.538C167.569 145.538 168.101 145.641 168.567 145.846C169.043 146.051 169.445 146.327 169.771 146.672C170.107 147.017 170.359 147.419 170.527 147.876C170.705 148.333 170.793 148.809 170.793 149.304C170.793 149.425 170.789 149.542 170.779 149.654C170.779 149.766 170.77 149.859 170.751 149.934H165.081C165.109 150.223 165.179 150.48 165.291 150.704C165.403 150.928 165.548 151.119 165.725 151.278C165.903 151.437 166.103 151.558 166.327 151.642C166.551 151.726 166.785 151.768 167.027 151.768C167.401 151.768 167.751 151.679 168.077 151.502C168.413 151.315 168.642 151.073 168.763 150.774L170.373 151.222C170.103 151.782 169.669 152.244 169.071 152.608C168.483 152.963 167.779 153.14 166.957 153.14ZM168.861 148.716C168.815 148.165 168.609 147.727 168.245 147.4C167.891 147.064 167.457 146.896 166.943 146.896C166.691 146.896 166.453 146.943 166.229 147.036C166.015 147.12 165.823 147.241 165.655 147.4C165.487 147.559 165.347 147.75 165.235 147.974C165.133 148.198 165.072 148.445 165.053 148.716H168.861ZM175.747 153V147.484H174.781V146.056H175.747V145.608C175.747 144.693 175.967 143.97 176.405 143.438C176.844 142.906 177.441 142.64 178.197 142.64C178.795 142.64 179.397 142.785 180.003 143.074L179.625 144.488C179.485 144.413 179.317 144.353 179.121 144.306C178.935 144.25 178.762 144.222 178.603 144.222C177.95 144.222 177.623 144.661 177.623 145.538V146.056H179.415V147.484H177.623V153H175.747ZM182.374 153.14C182.019 153.14 181.688 153.084 181.38 152.972C181.072 152.851 180.806 152.687 180.582 152.482C180.358 152.267 180.18 152.02 180.05 151.74C179.928 151.46 179.868 151.152 179.868 150.816C179.868 150.471 179.942 150.153 180.092 149.864C180.25 149.565 180.465 149.313 180.736 149.108C181.016 148.903 181.347 148.744 181.73 148.632C182.112 148.511 182.532 148.45 182.99 148.45C183.316 148.45 183.634 148.478 183.942 148.534C184.259 148.59 184.539 148.669 184.782 148.772V148.352C184.782 147.867 184.642 147.493 184.362 147.232C184.091 146.971 183.685 146.84 183.144 146.84C182.752 146.84 182.369 146.91 181.996 147.05C181.622 147.19 181.24 147.395 180.848 147.666L180.274 146.476C181.216 145.851 182.234 145.538 183.326 145.538C184.38 145.538 185.197 145.799 185.776 146.322C186.364 146.835 186.658 147.582 186.658 148.562V150.844C186.658 151.04 186.69 151.18 186.756 151.264C186.83 151.348 186.947 151.395 187.106 151.404V153C186.788 153.065 186.513 153.098 186.28 153.098C185.925 153.098 185.65 153.019 185.454 152.86C185.267 152.701 185.15 152.491 185.104 152.23L185.062 151.824C184.735 152.253 184.338 152.58 183.872 152.804C183.405 153.028 182.906 153.14 182.374 153.14ZM182.906 151.768C183.223 151.768 183.522 151.712 183.802 151.6C184.091 151.488 184.315 151.339 184.474 151.152C184.679 150.993 184.782 150.816 184.782 150.62V149.78C184.558 149.696 184.315 149.631 184.054 149.584C183.792 149.528 183.54 149.5 183.298 149.5C182.812 149.5 182.416 149.612 182.108 149.836C181.8 150.051 181.646 150.326 181.646 150.662C181.646 150.979 181.767 151.245 182.01 151.46C182.252 151.665 182.551 151.768 182.906 151.768ZM199.807 153H197.931V148.884C197.931 148.296 197.828 147.867 197.623 147.596C197.427 147.325 197.151 147.19 196.797 147.19C196.423 147.19 196.073 147.335 195.747 147.624C195.42 147.904 195.187 148.273 195.047 148.73V153H193.171V148.884C193.171 148.296 193.068 147.867 192.863 147.596C192.667 147.325 192.391 147.19 192.037 147.19C191.673 147.19 191.323 147.33 190.987 147.61C190.66 147.89 190.427 148.259 190.287 148.716V153H188.411V145.664H190.105V147.022C190.375 146.546 190.744 146.182 191.211 145.93C191.687 145.669 192.228 145.538 192.835 145.538C193.451 145.538 193.927 145.687 194.263 145.986C194.599 146.285 194.813 146.653 194.907 147.092C195.205 146.588 195.583 146.205 196.041 145.944C196.498 145.673 197.021 145.538 197.609 145.538C198.057 145.538 198.425 145.622 198.715 145.79C199.004 145.958 199.228 146.177 199.387 146.448C199.545 146.719 199.653 147.027 199.709 147.372C199.774 147.717 199.807 148.067 199.807 148.422V153ZM201.44 153V145.664H203.316V153H201.44ZM201.44 144.642V142.78H203.316V144.642H201.44ZM204.994 142.78H206.87V150.648C206.87 150.919 206.936 151.129 207.066 151.278C207.197 151.427 207.384 151.502 207.626 151.502C207.738 151.502 207.86 151.483 207.99 151.446C208.13 151.409 208.261 151.362 208.382 151.306L208.634 152.734C208.382 152.855 208.088 152.949 207.752 153.014C207.416 153.079 207.113 153.112 206.842 153.112C206.254 153.112 205.797 152.958 205.47 152.65C205.153 152.333 204.994 151.885 204.994 151.306V142.78ZM209.452 153V145.664H211.328V153H209.452ZM209.452 144.642V142.78H211.328V144.642H209.452ZM215.022 153.14C214.667 153.14 214.336 153.084 214.028 152.972C213.72 152.851 213.454 152.687 213.23 152.482C213.006 152.267 212.829 152.02 212.698 151.74C212.577 151.46 212.516 151.152 212.516 150.816C212.516 150.471 212.591 150.153 212.74 149.864C212.899 149.565 213.113 149.313 213.384 149.108C213.664 148.903 213.995 148.744 214.378 148.632C214.761 148.511 215.181 148.45 215.638 148.45C215.965 148.45 216.282 148.478 216.59 148.534C216.907 148.59 217.187 148.669 217.43 148.772V148.352C217.43 147.867 217.29 147.493 217.01 147.232C216.739 146.971 216.333 146.84 215.792 146.84C215.4 146.84 215.017 146.91 214.644 147.05C214.271 147.19 213.888 147.395 213.496 147.666L212.922 146.476C213.865 145.851 214.882 145.538 215.974 145.538C217.029 145.538 217.845 145.799 218.424 146.322C219.012 146.835 219.306 147.582 219.306 148.562V150.844C219.306 151.04 219.339 151.18 219.404 151.264C219.479 151.348 219.595 151.395 219.754 151.404V153C219.437 153.065 219.161 153.098 218.928 153.098C218.573 153.098 218.298 153.019 218.102 152.86C217.915 152.701 217.799 152.491 217.752 152.23L217.71 151.824C217.383 152.253 216.987 152.58 216.52 152.804C216.053 153.028 215.554 153.14 215.022 153.14ZM215.554 151.768C215.871 151.768 216.17 151.712 216.45 151.6C216.739 151.488 216.963 151.339 217.122 151.152C217.327 150.993 217.43 150.816 217.43 150.62V149.78C217.206 149.696 216.963 149.631 216.702 149.584C216.441 149.528 216.189 149.5 215.946 149.5C215.461 149.5 215.064 149.612 214.756 149.836C214.448 150.051 214.294 150.326 214.294 150.662C214.294 150.979 214.415 151.245 214.658 151.46C214.901 151.665 215.199 151.768 215.554 151.768ZM221.017 153V150.984H222.557V153H221.017Z" fill="#752A9F"/>
<path d="M32.218 42.308C30.6047 42.308 29.1527 41.9707 27.862 41.296C26.586 40.6067 25.5813 39.6533 24.848 38.436C24.1147 37.2187 23.748 35.84 23.748 34.3C23.748 32.76 24.1147 31.3813 24.848 30.164C25.5813 28.9467 26.586 28.0007 27.862 27.326C29.1527 26.6367 30.6047 26.292 32.218 26.292C33.626 26.292 34.8947 26.5413 36.024 27.04C37.1533 27.5387 38.092 28.2573 38.84 29.196L36.068 31.704C35.0707 30.5013 33.8607 29.9 32.438 29.9C31.602 29.9 30.854 30.0833 30.194 30.45C29.5487 30.8167 29.0427 31.3373 28.676 32.012C28.324 32.672 28.148 33.4347 28.148 34.3C28.148 35.1653 28.324 35.9353 28.676 36.61C29.0427 37.27 29.5487 37.7833 30.194 38.15C30.854 38.5167 31.602 38.7 32.438 38.7C33.8607 38.7 35.0707 38.0987 36.068 36.896L38.84 39.404C38.092 40.3427 37.1533 41.0613 36.024 41.56C34.8947 42.0587 33.626 42.308 32.218 42.308ZM46.203 42.198C44.927 42.198 43.7756 41.934 42.749 41.406C41.7223 40.878 40.9156 40.1447 40.329 39.206C39.757 38.2673 39.471 37.204 39.471 36.016C39.471 34.8427 39.757 33.7867 40.329 32.848C40.9156 31.9093 41.715 31.1833 42.727 30.67C43.7536 30.142 44.9123 29.878 46.203 29.878C47.4936 29.878 48.6523 30.142 49.679 30.67C50.7056 31.1833 51.505 31.9093 52.077 32.848C52.649 33.772 52.935 34.828 52.935 36.016C52.935 37.204 52.649 38.2673 52.077 39.206C51.505 40.1447 50.7056 40.878 49.679 41.406C48.6523 41.934 47.4936 42.198 46.203 42.198ZM46.203 38.876C46.9363 38.876 47.5376 38.6267 48.007 38.128C48.4763 37.6147 48.711 36.9107 48.711 36.016C48.711 35.136 48.4763 34.4467 48.007 33.948C47.5376 33.4493 46.9363 33.2 46.203 33.2C45.4696 33.2 44.8683 33.4493 44.399 33.948C43.9296 34.4467 43.695 35.136 43.695 36.016C43.695 36.9107 43.9296 37.6147 44.399 38.128C44.8683 38.6267 45.4696 38.876 46.203 38.876ZM62.6373 29.878C64.1186 29.878 65.3066 30.318 66.2013 31.198C67.1106 32.078 67.5653 33.4053 67.5653 35.18V42H63.3853V35.862C63.3853 34.234 62.7326 33.42 61.4273 33.42C60.7086 33.42 60.1293 33.6547 59.6893 34.124C59.264 34.5933 59.0513 35.2973 59.0513 36.236V42H54.8713V30.076H58.8533V31.374C59.3226 30.89 59.88 30.5233 60.5253 30.274C61.1706 30.01 61.8746 29.878 62.6373 29.878ZM74.5237 42.198C73.5263 42.198 72.5437 42.088 71.5757 41.868C70.6077 41.6333 69.8303 41.3327 69.2437 40.966L70.4977 38.106C71.0403 38.4433 71.6857 38.7147 72.4337 38.92C73.1817 39.1107 73.9223 39.206 74.6557 39.206C75.3303 39.206 75.807 39.14 76.0857 39.008C76.379 38.8613 76.5257 38.656 76.5257 38.392C76.5257 38.128 76.3497 37.9447 75.9977 37.842C75.6603 37.7247 75.1177 37.6147 74.3697 37.512C73.4163 37.3947 72.6023 37.2407 71.9277 37.05C71.2677 36.8593 70.6957 36.5073 70.2117 35.994C69.7277 35.4807 69.4857 34.762 69.4857 33.838C69.4857 33.0753 69.713 32.4007 70.1677 31.814C70.6223 31.2127 71.2823 30.7433 72.1477 30.406C73.0277 30.054 74.0763 29.878 75.2937 29.878C76.159 29.878 77.017 29.966 77.8677 30.142C78.7183 30.318 79.4297 30.5673 80.0017 30.89L78.7477 33.728C77.6917 33.1413 76.5477 32.848 75.3157 32.848C74.6557 32.848 74.1717 32.9287 73.8637 33.09C73.5557 33.2367 73.4017 33.4347 73.4017 33.684C73.4017 33.9627 73.5703 34.1607 73.9077 34.278C74.245 34.3807 74.8023 34.4907 75.5797 34.608C76.5623 34.7547 77.3763 34.9233 78.0217 35.114C78.667 35.3047 79.2243 35.6567 79.6937 36.17C80.1777 36.6687 80.4197 37.3727 80.4197 38.282C80.4197 39.03 80.1923 39.7047 79.7377 40.306C79.283 40.8927 78.6083 41.3547 77.7137 41.692C76.8337 42.0293 75.7703 42.198 74.5237 42.198ZM94.7609 30.076V42H90.7789V40.724C90.3389 41.208 89.8109 41.5747 89.1949 41.824C88.5789 42.0733 87.9262 42.198 87.2369 42.198C85.6969 42.198 84.4649 41.7433 83.5409 40.834C82.6316 39.9247 82.1769 38.5607 82.1769 36.742V30.076H86.3569V36.06C86.3569 36.9547 86.5256 37.6073 86.8629 38.018C87.2002 38.4287 87.6916 38.634 88.3369 38.634C88.9969 38.634 89.5322 38.4067 89.9429 37.952C90.3682 37.4827 90.5809 36.7713 90.5809 35.818V30.076H94.7609ZM97.4533 25.676H101.633V42H97.4533V25.676ZM113.759 41.516C113.407 41.736 112.975 41.9047 112.461 42.022C111.963 42.1393 111.427 42.198 110.855 42.198C109.301 42.198 108.105 41.8167 107.269 41.054C106.433 40.2913 106.015 39.1547 106.015 37.644V33.64H104.277V30.516H106.015V27.414H110.195V30.516H112.923V33.64H110.195V37.6C110.195 38.0253 110.305 38.3627 110.525 38.612C110.76 38.8467 111.068 38.964 111.449 38.964C111.933 38.964 112.359 38.8393 112.725 38.59L113.759 41.516ZM121.012 42.198C119.736 42.198 118.584 41.934 117.558 41.406C116.531 40.878 115.724 40.1447 115.138 39.206C114.566 38.2673 114.28 37.204 114.28 36.016C114.28 34.8427 114.566 33.7867 115.138 32.848C115.724 31.9093 116.524 31.1833 117.536 30.67C118.562 30.142 119.721 29.878 121.012 29.878C122.302 29.878 123.461 30.142 124.488 30.67C125.514 31.1833 126.314 31.9093 126.886 32.848C127.458 33.772 127.744 34.828 127.744 36.016C127.744 37.204 127.458 38.2673 126.886 39.206C126.314 40.1447 125.514 40.878 124.488 41.406C123.461 41.934 122.302 42.198 121.012 42.198ZM121.012 38.876C121.745 38.876 122.346 38.6267 122.816 38.128C123.285 37.6147 123.52 36.9107 123.52 36.016C123.52 35.136 123.285 34.4467 122.816 33.948C122.346 33.4493 121.745 33.2 121.012 33.2C120.278 33.2 119.677 33.4493 119.208 33.948C118.738 34.4467 118.504 35.136 118.504 36.016C118.504 36.9107 118.738 37.6147 119.208 38.128C119.677 38.6267 120.278 38.876 121.012 38.876ZM133.662 31.506C134.087 30.9633 134.637 30.56 135.312 30.296C136.001 30.0173 136.786 29.878 137.666 29.878V33.64C137.285 33.596 136.969 33.574 136.72 33.574C135.825 33.574 135.121 33.816 134.608 34.3C134.109 34.784 133.86 35.5247 133.86 36.522V42H129.68V30.076H133.662V31.506ZM144.387 29.878C146.367 29.878 147.878 30.3327 148.919 31.242C149.96 32.1367 150.481 33.5153 150.481 35.378V42H146.587V40.46C145.986 41.6187 144.812 42.198 143.067 42.198C142.143 42.198 141.344 42.0367 140.669 41.714C139.994 41.3913 139.481 40.9587 139.129 40.416C138.792 39.8587 138.623 39.228 138.623 38.524C138.623 37.3947 139.056 36.522 139.921 35.906C140.786 35.2753 142.121 34.96 143.925 34.96H146.301C146.228 33.6987 145.384 33.068 143.771 33.068C143.199 33.068 142.62 33.1633 142.033 33.354C141.446 33.53 140.948 33.7793 140.537 34.102L139.129 31.264C139.789 30.824 140.588 30.4867 141.527 30.252C142.48 30.0027 143.434 29.878 144.387 29.878ZM144.233 39.558C144.717 39.558 145.142 39.4407 145.509 39.206C145.876 38.9713 146.14 38.6267 146.301 38.172V37.138H144.497C143.28 37.138 142.671 37.5413 142.671 38.348C142.671 38.7147 142.81 39.008 143.089 39.228C143.368 39.448 143.749 39.558 144.233 39.558ZM165.616 42.198C164.296 42.198 163.115 41.934 162.074 41.406C161.032 40.878 160.218 40.1447 159.632 39.206C159.06 38.2673 158.774 37.204 158.774 36.016C158.774 34.828 159.06 33.772 159.632 32.848C160.218 31.9093 161.032 31.1833 162.074 30.67C163.115 30.142 164.296 29.878 165.616 29.878C166.965 29.878 168.131 30.1713 169.114 30.758C170.096 31.33 170.793 32.1293 171.204 33.156L167.97 34.806C167.427 33.7353 166.635 33.2 165.594 33.2C164.846 33.2 164.222 33.4493 163.724 33.948C163.24 34.4467 162.998 35.136 162.998 36.016C162.998 36.9107 163.24 37.6147 163.724 38.128C164.222 38.6267 164.846 38.876 165.594 38.876C166.635 38.876 167.427 38.3407 167.97 37.27L171.204 38.92C170.793 39.9467 170.096 40.7533 169.114 41.34C168.131 41.912 166.965 42.198 165.616 42.198ZM184.837 36.06C184.837 36.0893 184.815 36.434 184.771 37.094H176.103C176.279 37.71 176.616 38.1867 177.115 38.524C177.628 38.8467 178.266 39.008 179.029 39.008C179.601 39.008 180.092 38.9273 180.503 38.766C180.928 38.6047 181.353 38.3407 181.779 37.974L183.979 40.262C182.82 41.5527 181.126 42.198 178.897 42.198C177.503 42.198 176.279 41.934 175.223 41.406C174.167 40.878 173.345 40.1447 172.759 39.206C172.187 38.2673 171.901 37.204 171.901 36.016C171.901 34.8427 172.179 33.794 172.737 32.87C173.309 31.9313 174.093 31.198 175.091 30.67C176.088 30.142 177.21 29.878 178.457 29.878C179.645 29.878 180.723 30.1273 181.691 30.626C182.659 31.11 183.421 31.8213 183.979 32.76C184.551 33.684 184.837 34.784 184.837 36.06ZM178.479 32.848C177.833 32.848 177.291 33.0313 176.851 33.398C176.425 33.7647 176.154 34.2633 176.037 34.894H180.921C180.803 34.2633 180.525 33.7647 180.085 33.398C179.659 33.0313 179.124 32.848 178.479 32.848ZM190.746 31.506C191.171 30.9633 191.721 30.56 192.396 30.296C193.085 30.0173 193.87 29.878 194.75 29.878V33.64C194.369 33.596 194.053 33.574 193.804 33.574C192.909 33.574 192.205 33.816 191.692 34.3C191.193 34.784 190.944 35.5247 190.944 36.522V42H186.764V30.076H190.746V31.506ZM205.068 41.516C204.716 41.736 204.283 41.9047 203.77 42.022C203.271 42.1393 202.736 42.198 202.164 42.198C200.609 42.198 199.414 41.8167 198.578 41.054C197.742 40.2913 197.324 39.1547 197.324 37.644V33.64H195.586V30.516H197.324V27.414H201.504V30.516H204.232V33.64H201.504V37.6C201.504 38.0253 201.614 38.3627 201.834 38.612C202.069 38.8467 202.377 38.964 202.758 38.964C203.242 38.964 203.667 38.8393 204.034 38.59L205.068 41.516ZM206.68 30.076H210.86V42H206.68V30.076ZM208.77 28.756C208.007 28.756 207.391 28.5433 206.922 28.118C206.453 27.6927 206.218 27.1647 206.218 26.534C206.218 25.9033 206.453 25.3753 206.922 24.95C207.391 24.5247 208.007 24.312 208.77 24.312C209.533 24.312 210.149 24.5173 210.618 24.928C211.087 25.324 211.322 25.8373 211.322 26.468C211.322 27.128 211.087 27.678 210.618 28.118C210.149 28.5433 209.533 28.756 208.77 28.756ZM218.13 30.516H220.968V33.64H218.24V42H214.06V33.64H212.322V30.516H214.06V30.208C214.06 28.756 214.493 27.6047 215.358 26.754C216.238 25.9033 217.463 25.478 219.032 25.478C219.56 25.478 220.074 25.5293 220.572 25.632C221.071 25.7347 221.482 25.8887 221.804 26.094L220.77 29.042C220.36 28.8073 219.942 28.69 219.516 28.69C219.076 28.69 218.732 28.822 218.482 29.086C218.248 29.35 218.13 29.7387 218.13 30.252V30.516ZM224.276 30.076H228.456V42H224.276V30.076ZM226.366 28.756C225.603 28.756 224.987 28.5433 224.518 28.118C224.048 27.6927 223.814 27.1647 223.814 26.534C223.814 25.9033 224.048 25.3753 224.518 24.95C224.987 24.5247 225.603 24.312 226.366 24.312C227.128 24.312 227.744 24.5173 228.214 24.928C228.683 25.324 228.918 25.8373 228.918 26.468C228.918 27.128 228.683 27.678 228.214 28.118C227.744 28.5433 227.128 28.756 226.366 28.756ZM237.266 42.198C235.946 42.198 234.765 41.934 233.724 41.406C232.683 40.878 231.869 40.1447 231.282 39.206C230.71 38.2673 230.424 37.204 230.424 36.016C230.424 34.828 230.71 33.772 231.282 32.848C231.869 31.9093 232.683 31.1833 233.724 30.67C234.765 30.142 235.946 29.878 237.266 29.878C238.615 29.878 239.781 30.1713 240.764 30.758C241.747 31.33 242.443 32.1293 242.854 33.156L239.62 34.806C239.077 33.7353 238.285 33.2 237.244 33.2C236.496 33.2 235.873 33.4493 235.374 33.948C234.89 34.4467 234.648 35.136 234.648 36.016C234.648 36.9107 234.89 37.6147 235.374 38.128C235.873 38.6267 236.496 38.876 237.244 38.876C238.285 38.876 239.077 38.3407 239.62 37.27L242.854 38.92C242.443 39.9467 241.747 40.7533 240.764 41.34C239.781 41.912 238.615 42.198 237.266 42.198ZM249.51 29.878C251.49 29.878 253.001 30.3327 254.042 31.242C255.083 32.1367 255.604 33.5153 255.604 35.378V42H251.71V40.46C251.109 41.6187 249.935 42.198 248.19 42.198C247.266 42.198 246.467 42.0367 245.792 41.714C245.117 41.3913 244.604 40.9587 244.252 40.416C243.915 39.8587 243.746 39.228 243.746 38.524C243.746 37.3947 244.179 36.522 245.044 35.906C245.909 35.2753 247.244 34.96 249.048 34.96H251.424C251.351 33.6987 250.507 33.068 248.894 33.068C248.322 33.068 247.743 33.1633 247.156 33.354C246.569 33.53 246.071 33.7793 245.66 34.102L244.252 31.264C244.912 30.824 245.711 30.4867 246.65 30.252C247.603 30.0027 248.557 29.878 249.51 29.878ZM249.356 39.558C249.84 39.558 250.265 39.4407 250.632 39.206C250.999 38.9713 251.263 38.6267 251.424 38.172V37.138H249.62C248.403 37.138 247.794 37.5413 247.794 38.348C247.794 38.7147 247.933 39.008 248.212 39.228C248.491 39.448 248.872 39.558 249.356 39.558ZM271.086 25.676V42H267.104V40.812C266.327 41.736 265.161 42.198 263.606 42.198C262.521 42.198 261.531 41.9487 260.636 41.45C259.742 40.9367 259.03 40.2107 258.502 39.272C257.989 38.3333 257.732 37.248 257.732 36.016C257.732 34.784 257.989 33.706 258.502 32.782C259.03 31.8433 259.742 31.1247 260.636 30.626C261.531 30.1273 262.521 29.878 263.606 29.878C265.029 29.878 266.129 30.2887 266.906 31.11V25.676H271.086ZM264.486 38.876C265.205 38.876 265.799 38.6267 266.268 38.128C266.738 37.6147 266.972 36.9107 266.972 36.016C266.972 35.136 266.738 34.4467 266.268 33.948C265.814 33.4493 265.22 33.2 264.486 33.2C263.753 33.2 263.152 33.4493 262.682 33.948C262.213 34.4467 261.978 35.136 261.978 36.016C261.978 36.9107 262.213 37.6147 262.682 38.128C263.152 38.6267 263.753 38.876 264.486 38.876ZM278.858 29.878C280.838 29.878 282.348 30.3327 283.39 31.242C284.431 32.1367 284.952 33.5153 284.952 35.378V42H281.058V40.46C280.456 41.6187 279.283 42.198 277.538 42.198C276.614 42.198 275.814 42.0367 275.14 41.714C274.465 41.3913 273.952 40.9587 273.6 40.416C273.262 39.8587 273.094 39.228 273.094 38.524C273.094 37.3947 273.526 36.522 274.392 35.906C275.257 35.2753 276.592 34.96 278.396 34.96H280.772C280.698 33.6987 279.855 33.068 278.242 33.068C277.67 33.068 277.09 33.1633 276.504 33.354C275.917 33.53 275.418 33.7793 275.008 34.102L273.6 31.264C274.26 30.824 275.059 30.4867 275.998 30.252C276.951 30.0027 277.904 29.878 278.858 29.878ZM278.704 39.558C279.188 39.558 279.613 39.4407 279.98 39.206C280.346 38.9713 280.61 38.6267 280.772 38.172V37.138H278.968C277.75 37.138 277.142 37.5413 277.142 38.348C277.142 38.7147 277.281 39.008 277.56 39.228C277.838 39.448 278.22 39.558 278.704 39.558ZM36.53 70.06C36.53 70.0893 36.508 70.434 36.464 71.094H27.796C27.972 71.71 28.3093 72.1867 28.808 72.524C29.3213 72.8467 29.9593 73.008 30.722 73.008C31.294 73.008 31.7853 72.9273 32.196 72.766C32.6213 72.6047 33.0467 72.3407 33.472 71.974L35.672 74.262C34.5133 75.5527 32.8193 76.198 30.59 76.198C29.1967 76.198 27.972 75.934 26.916 75.406C25.86 74.878 25.0387 74.1447 24.452 73.206C23.88 72.2673 23.594 71.204 23.594 70.016C23.594 68.8427 23.8727 67.794 24.43 66.87C25.002 65.9313 25.7867 65.198 26.784 64.67C27.7813 64.142 28.9033 63.878 30.15 63.878C31.338 63.878 32.416 64.1273 33.384 64.626C34.352 65.11 35.1147 65.8213 35.672 66.76C36.244 67.684 36.53 68.784 36.53 70.06ZM30.172 66.848C29.5267 66.848 28.984 67.0313 28.544 67.398C28.1187 67.7647 27.8473 68.2633 27.73 68.894H32.614C32.4967 68.2633 32.218 67.7647 31.778 67.398C31.3527 67.0313 30.8173 66.848 30.172 66.848ZM46.2232 63.878C47.7046 63.878 48.8926 64.318 49.7872 65.198C50.6966 66.078 51.1512 67.4053 51.1512 69.18V76H46.9712V69.862C46.9712 68.234 46.3186 67.42 45.0132 67.42C44.2946 67.42 43.7152 67.6547 43.2752 68.124C42.8499 68.5933 42.6372 69.2973 42.6372 70.236V76H38.4572V64.076H42.4392V65.374C42.9086 64.89 43.4659 64.5233 44.1112 64.274C44.7566 64.01 45.4606 63.878 46.2232 63.878ZM65.7879 76.308C64.5413 76.308 63.3313 76.154 62.1579 75.846C60.9846 75.538 60.0313 75.1273 59.2979 74.614L60.7279 71.402C61.4173 71.8567 62.2166 72.2233 63.1259 72.502C64.0353 72.7807 64.9299 72.92 65.8099 72.92C67.4819 72.92 68.3179 72.502 68.3179 71.666C68.3179 71.226 68.0759 70.9033 67.5919 70.698C67.1226 70.478 66.3599 70.2507 65.3039 70.016C64.1453 69.7667 63.1773 69.5027 62.3999 69.224C61.6226 68.9307 60.9553 68.4687 60.3979 67.838C59.8406 67.2073 59.5619 66.3567 59.5619 65.286C59.5619 64.3473 59.8186 63.504 60.3319 62.756C60.8453 61.9933 61.6079 61.392 62.6199 60.952C63.6466 60.512 64.9006 60.292 66.3819 60.292C67.3939 60.292 68.3913 60.4093 69.3739 60.644C70.3566 60.864 71.2219 61.194 71.9699 61.634L70.6279 64.868C69.1613 64.076 67.7386 63.68 66.3599 63.68C65.4946 63.68 64.8639 63.812 64.4679 64.076C64.0719 64.3253 63.8739 64.6553 63.8739 65.066C63.8739 65.4767 64.1086 65.7847 64.5779 65.99C65.0473 66.1953 65.8026 66.408 66.8439 66.628C68.0173 66.8773 68.9853 67.1487 69.7479 67.442C70.5253 67.7207 71.1926 68.1753 71.7499 68.806C72.3219 69.422 72.6079 70.2653 72.6079 71.336C72.6079 72.26 72.3513 73.096 71.8379 73.844C71.3246 74.592 70.5546 75.1933 69.5279 75.648C68.5013 76.088 67.2546 76.308 65.7879 76.308ZM86.6101 70.06C86.6101 70.0893 86.5881 70.434 86.5441 71.094H77.8761C78.0521 71.71 78.3894 72.1867 78.8881 72.524C79.4014 72.8467 80.0394 73.008 80.8021 73.008C81.3741 73.008 81.8654 72.9273 82.2761 72.766C82.7014 72.6047 83.1267 72.3407 83.5521 71.974L85.7521 74.262C84.5934 75.5527 82.8994 76.198 80.6701 76.198C79.2767 76.198 78.0521 75.934 76.9961 75.406C75.9401 74.878 75.1187 74.1447 74.5321 73.206C73.9601 72.2673 73.6741 71.204 73.6741 70.016C73.6741 68.8427 73.9527 67.794 74.5101 66.87C75.0821 65.9313 75.8667 65.198 76.8641 64.67C77.8614 64.142 78.9834 63.878 80.2301 63.878C81.4181 63.878 82.4961 64.1273 83.4641 64.626C84.4321 65.11 85.1947 65.8213 85.7521 66.76C86.3241 67.684 86.6101 68.784 86.6101 70.06ZM80.2521 66.848C79.6067 66.848 79.0641 67.0313 78.6241 67.398C78.1987 67.7647 77.9274 68.2633 77.8101 68.894H82.6941C82.5767 68.2633 82.2981 67.7647 81.8581 67.398C81.4327 67.0313 80.8974 66.848 80.2521 66.848ZM104.069 63.878C105.536 63.878 106.702 64.318 107.567 65.198C108.447 66.078 108.887 67.4053 108.887 69.18V76H104.707V69.862C104.707 69.026 104.546 68.41 104.223 68.014C103.915 67.618 103.475 67.42 102.903 67.42C102.273 67.42 101.767 67.64 101.385 68.08C101.004 68.52 100.813 69.1873 100.813 70.082V76H96.6333V69.862C96.6333 68.234 96.032 67.42 94.8293 67.42C94.184 67.42 93.6706 67.64 93.2893 68.08C92.908 68.52 92.7173 69.1873 92.7173 70.082V76H88.5373V64.076H92.5193V65.33C92.9593 64.846 93.48 64.4867 94.0813 64.252C94.6973 64.0027 95.3646 63.878 96.0833 63.878C96.9193 63.878 97.6673 64.032 98.3273 64.34C98.9873 64.648 99.5226 65.1173 99.9333 65.748C100.403 65.1467 100.997 64.6847 101.715 64.362C102.434 64.0393 103.219 63.878 104.069 63.878ZM111.526 64.076H115.706V76H111.526V64.076ZM113.616 62.756C112.853 62.756 112.237 62.5433 111.768 62.118C111.298 61.6927 111.064 61.1647 111.064 60.534C111.064 59.9033 111.298 59.3753 111.768 58.95C112.237 58.5247 112.853 58.312 113.616 58.312C114.378 58.312 114.994 58.5173 115.464 58.928C115.933 59.324 116.168 59.8373 116.168 60.468C116.168 61.128 115.933 61.678 115.464 62.118C114.994 62.5433 114.378 62.756 113.616 62.756ZM124.406 76.198C123.13 76.198 121.979 75.934 120.952 75.406C119.925 74.878 119.119 74.1447 118.532 73.206C117.96 72.2673 117.674 71.204 117.674 70.016C117.674 68.8427 117.96 67.7867 118.532 66.848C119.119 65.9093 119.918 65.1833 120.93 64.67C121.957 64.142 123.115 63.878 124.406 63.878C125.697 63.878 126.855 64.142 127.882 64.67C128.909 65.1833 129.708 65.9093 130.28 66.848C130.852 67.772 131.138 68.828 131.138 70.016C131.138 71.204 130.852 72.2673 130.28 73.206C129.708 74.1447 128.909 74.878 127.882 75.406C126.855 75.934 125.697 76.198 124.406 76.198ZM124.406 72.876C125.139 72.876 125.741 72.6267 126.21 72.128C126.679 71.6147 126.914 70.9107 126.914 70.016C126.914 69.136 126.679 68.4467 126.21 67.948C125.741 67.4493 125.139 67.2 124.406 67.2C123.673 67.2 123.071 67.4493 122.602 67.948C122.133 68.4467 121.898 69.136 121.898 70.016C121.898 70.9107 122.133 71.6147 122.602 72.128C123.071 72.6267 123.673 72.876 124.406 72.876ZM133.074 59.676H137.254V76H133.074V59.676ZM145.955 76.198C144.679 76.198 143.528 75.934 142.501 75.406C141.474 74.878 140.668 74.1447 140.081 73.206C139.509 72.2673 139.223 71.204 139.223 70.016C139.223 68.8427 139.509 67.7867 140.081 66.848C140.668 65.9093 141.467 65.1833 142.479 64.67C143.506 64.142 144.664 63.878 145.955 63.878C147.246 63.878 148.404 64.142 149.431 64.67C150.458 65.1833 151.257 65.9093 151.829 66.848C152.401 67.772 152.687 68.828 152.687 70.016C152.687 71.204 152.401 72.2673 151.829 73.206C151.257 74.1447 150.458 74.878 149.431 75.406C148.404 75.934 147.246 76.198 145.955 76.198ZM145.955 72.876C146.688 72.876 147.29 72.6267 147.759 72.128C148.228 71.6147 148.463 70.9107 148.463 70.016C148.463 69.136 148.228 68.4467 147.759 67.948C147.29 67.4493 146.688 67.2 145.955 67.2C145.222 67.2 144.62 67.4493 144.151 67.948C143.682 68.4467 143.447 69.136 143.447 70.016C143.447 70.9107 143.682 71.6147 144.151 72.128C144.62 72.6267 145.222 72.876 145.955 72.876ZM167.449 64.076V73.822C167.449 76.0367 166.848 77.694 165.645 78.794C164.443 79.9087 162.712 80.466 160.453 80.466C159.28 80.466 158.18 80.334 157.153 80.07C156.127 79.806 155.254 79.4173 154.535 78.904L156.053 75.978C156.537 76.374 157.146 76.682 157.879 76.902C158.627 77.1367 159.361 77.254 160.079 77.254C161.179 77.254 161.986 77.012 162.499 76.528C163.013 76.044 163.269 75.3253 163.269 74.372V73.976C162.463 74.9147 161.282 75.384 159.727 75.384C158.671 75.384 157.696 75.1493 156.801 74.68C155.907 74.196 155.195 73.5213 154.667 72.656C154.139 71.776 153.875 70.764 153.875 69.62C153.875 68.4907 154.139 67.4933 154.667 66.628C155.195 65.748 155.907 65.0733 156.801 64.604C157.696 64.12 158.671 63.878 159.727 63.878C161.429 63.878 162.675 64.428 163.467 65.528V64.076H167.449ZM160.717 72.062C161.465 72.062 162.081 71.8347 162.565 71.38C163.064 70.9253 163.313 70.3387 163.313 69.62C163.313 68.9013 163.071 68.322 162.587 67.882C162.103 67.4273 161.48 67.2 160.717 67.2C159.955 67.2 159.324 67.4273 158.825 67.882C158.341 68.322 158.099 68.9013 158.099 69.62C158.099 70.3387 158.349 70.9253 158.847 71.38C159.346 71.8347 159.969 72.062 160.717 72.062ZM170.135 64.076H174.315V76H170.135V64.076ZM173.017 59.302H177.197L173.061 62.646H170.069L173.017 59.302ZM182.113 63.878C184.093 63.878 185.604 64.3327 186.645 65.242C187.687 66.1367 188.207 67.5153 188.207 69.378V76H184.313V74.46C183.712 75.6187 182.539 76.198 180.793 76.198C179.869 76.198 179.07 76.0367 178.395 75.714C177.721 75.3913 177.207 74.9587 176.855 74.416C176.518 73.8587 176.349 73.228 176.349 72.524C176.349 71.3947 176.782 70.522 177.647 69.906C178.513 69.2753 179.847 68.96 181.651 68.96H184.027C183.954 67.6987 183.111 67.068 181.497 67.068C180.925 67.068 180.346 67.1633 179.759 67.354C179.173 67.53 178.674 67.7793 178.263 68.102L176.855 65.264C177.515 64.824 178.315 64.4867 179.253 64.252C180.207 64.0027 181.16 63.878 182.113 63.878ZM181.959 73.558C182.443 73.558 182.869 73.4407 183.235 73.206C183.602 72.9713 183.866 72.6267 184.027 72.172V71.138H182.223C181.006 71.138 180.397 71.5413 180.397 72.348C180.397 72.7147 180.537 73.008 180.815 73.228C181.094 73.448 181.475 73.558 181.959 73.558ZM192.606 68.828C191.902 68.828 191.308 68.5933 190.824 68.124C190.34 67.6547 190.098 67.0607 190.098 66.342C190.098 65.6087 190.333 65.0147 190.802 64.56C191.286 64.1053 191.887 63.878 192.606 63.878C193.339 63.878 193.941 64.1053 194.41 64.56C194.879 65.0147 195.114 65.6087 195.114 66.342C195.114 67.0607 194.872 67.6547 194.388 68.124C193.919 68.5933 193.325 68.828 192.606 68.828ZM192.606 76.198C191.902 76.198 191.308 75.9633 190.824 75.494C190.34 75.0247 190.098 74.4307 190.098 73.712C190.098 72.9787 190.333 72.3847 190.802 71.93C191.286 71.4753 191.887 71.248 192.606 71.248C193.339 71.248 193.941 71.4753 194.41 71.93C194.879 72.3847 195.114 72.9787 195.114 73.712C195.114 74.4307 194.872 75.0247 194.388 75.494C193.919 75.9633 193.325 76.198 192.606 76.198Z" fill="#752A9F"/>
<path d="M102.75 138.922C102.719 138.922 102.672 138.922 102.641 138.922C102.25 138.937 101.875 139 101.5 139.125V134.531C101.5 132.406 100.5 130.406 98.8125 129.109C101.766 127.062 102.422 122.922 100.141 120.062C98.2188 117.641 94.7344 117.016 92.0781 118.594C88.9375 120.469 88.0781 124.562 90.125 127.531C90.4219 127.969 90.7813 128.375 91.1875 128.719C90.9375 128.875 90.6875 129.047 90.4531 129.219L86.5156 132.375V132.437H86.4375L86.0625 132.734H77.75V132.719C76.375 132.719 75.25 133.844 75.25 135.219V137.75H66.5H64H62.75V134C62.75 133.312 62.1875 132.75 61.5 132.75H59H51.9375L47.5469 129.234C47.3125 129.047 47.0781 128.875 46.8125 128.734C49.5469 126.391 49.75 122.203 47.1719 119.594C45 117.391 41.4844 117.125 39 118.984C36.0625 121.172 35.6406 125.344 37.9844 128.078C38.3281 128.484 38.7344 128.844 39.1719 129.141C37.4688 130.422 36.4844 132.422 36.4844 134.562V139.156C36.125 139.031 35.7344 138.953 35.3438 138.953C33.2813 138.891 31.5469 140.516 31.4844 142.594C31.4844 142.625 31.4844 142.672 31.4844 142.703V146.078C31.4844 151.609 35 156.531 40.2344 158.328V161.5H38.9844C38.5156 161.5 38.0781 161.766 37.8594 162.187L36.6094 164.687C36.25 165.375 36.6094 166.25 37.4219 166.469C37.9844 166.625 38.5938 166.344 38.8438 165.812C38.8438 165.812 38.8438 165.812 38.8438 165.797L39.75 163.984H43.2031L44.1094 165.797C44.4063 166.422 45.1563 166.672 45.7813 166.375C46.4063 166.078 46.6563 165.328 46.3594 164.703C46.3594 164.703 46.3594 164.687 46.3438 164.687L45.0938 162.187C44.875 161.766 44.4531 161.5 43.9688 161.5H42.7188V158.891C43.2813 158.969 43.8594 159 44.4219 159H48.9219L48.875 165.25C48.875 165.937 49.4219 166.5 50.1094 166.5H50.125H55.25C55.9375 166.5 56.5 165.937 56.5 165.25V150.25C56.5 148.281 55.5781 146.422 54 145.25H61.4219L60.25 165.172C60.2031 165.859 60.7344 166.453 61.4219 166.5C61.4531 166.5 61.4688 166.5 61.5 166.5H66.5C67.1406 166.5 67.6719 166.031 67.7344 165.391L69 154.687L70.2656 165.391C70.3438 166.016 70.875 166.5 71.5 166.5H76.4531C77.0938 166.5 77.6563 166.031 77.7344 165.406C77.75 165.328 77.75 165.25 77.7344 165.172L76.5781 145.25H84C82.4219 146.422 81.5 148.281 81.5 150.25V165.25C81.5 165.937 82.0625 166.5 82.75 166.5H87.8438C88.5313 166.5 89.0938 165.937 89.0938 165.25V165.234L89.0469 159H93.5469C94.1094 159 94.6875 158.953 95.25 158.891V161.5H94C93.5313 161.5 93.0938 161.766 92.875 162.187L91.625 164.687C91.3281 165.312 91.5781 166.062 92.2031 166.359C92.8125 166.656 93.5625 166.406 93.8594 165.812L94.7656 164H98.2188L99.125 165.812C99.4219 166.437 100.172 166.687 100.797 166.391C101.422 166.094 101.672 165.344 101.375 164.719C101.375 164.719 101.375 164.703 101.359 164.703L100.109 162.203C99.8906 161.781 99.4688 161.516 98.9844 161.516H97.7344V158.312C102.969 156.516 106.484 151.594 106.484 146.062V142.687C106.5 140.609 104.828 138.922 102.75 138.922ZM95.25 120.25C97.3281 120.25 99 121.922 99 124C99 126.078 97.3281 127.75 95.25 127.75C93.1719 127.75 91.5 126.078 91.5 124C91.5 121.937 93.1875 120.25 95.25 120.25ZM39 124C39 121.922 40.6719 120.25 42.75 120.25C44.8281 120.25 46.5 121.922 46.5 124C46.5 126.078 44.8281 127.75 42.75 127.75C40.6875 127.75 39 126.062 39 124ZM48.9688 156.5H44.4531C38.6875 156.5 34 151.812 34 146.047V142.672C34 141.984 34.5625 141.422 35.25 141.422C35.9375 141.422 36.5 141.984 36.5 142.672V146.203C36.5 150.5 39.9844 153.984 44.2813 153.984H48.9844L48.9688 156.5ZM54 150.25V164H51.4219L51.5 152.766C51.5 152.078 50.9531 151.516 50.2656 151.5C50.2656 151.5 50.2656 151.5 50.25 151.5H44.2813C41.375 151.5 39 149.125 39 146.219V134.562C39 132.125 41.0313 130.156 43.5 130.266C44.4375 130.312 45.3281 130.672 46.0625 131.25L50.7188 134.984C50.9375 135.156 51.2188 135.266 51.5 135.266H58.9688C59.6719 135.266 60.25 135.844 60.25 136.547V137.766H50.5469L45.8594 135.422C45.3438 135.156 44.7031 135.25 44.3125 135.687C44.1094 135.922 44 136.219 44 136.516V145.266C44 145.953 44.5625 146.516 45.25 146.516H50.25C52.3125 146.5 54 148.187 54 150.25ZM49 139.766V144H46.5V138.516L49 139.766ZM65.3906 164H62.8281L63.9375 145.25H67.5938L65.3906 164ZM72.6094 164L70.4063 145.25H74.0781L75.1875 164H72.6094ZM51.5 142.75V140.25H86.5V142.75H51.5ZM87.75 151.5C87.0625 151.5 86.5 152.062 86.5 152.75V152.766L86.5781 164H84V150.25C84 148.187 85.6875 146.5 87.75 146.5H92.75C93.4375 146.5 94 145.937 94 145.25V136.547C94 135.969 93.625 135.437 93.0625 135.281C92.7656 135.203 92.4531 135.234 92.1875 135.375L87.4531 137.75H77.75V136.203C77.75 135.687 78.1719 135.25 78.7031 135.25H86.5C86.7813 135.25 87.0625 135.156 87.2813 134.969L92.0156 131.187C93.875 129.703 96.5781 130 98.0625 131.859C98.6719 132.625 99 133.562 99 134.547V146.203C99 149.125 96.625 151.484 93.7188 151.484H87.75V151.5ZM89 144V139.766L91.5 138.516V144H89ZM104 146.047C104 151.812 99.3125 156.5 93.5469 156.5H89.0313L89.0156 154H93.7188C98.0156 154 101.5 150.516 101.5 146.219V142.687C101.5 142 102.063 141.437 102.75 141.437C103.438 141.437 104 142 104 142.687V146.047Z" fill="#752A9F"/>
<path d="M81.4531 110.734C82.1435 110.734 82.7031 110.175 82.7031 109.484C82.7031 108.794 82.1435 108.234 81.4531 108.234C80.7628 108.234 80.2031 108.794 80.2031 109.484C80.2031 110.175 80.7628 110.734 81.4531 110.734Z" fill="#752A9F"/>
<path d="M76.4531 110.734C77.1435 110.734 77.7031 110.175 77.7031 109.484C77.7031 108.794 77.1435 108.234 76.4531 108.234C75.7628 108.234 75.2031 108.794 75.2031 109.484C75.2031 110.175 75.7628 110.734 76.4531 110.734Z" fill="#752A9F"/>
<path d="M71.4531 110.734C72.1435 110.734 72.7031 110.175 72.7031 109.484C72.7031 108.794 72.1435 108.234 71.4531 108.234C70.7628 108.234 70.2031 108.794 70.2031 109.484C70.2031 110.175 70.7628 110.734 71.4531 110.734Z" fill="#752A9F"/>
<path d="M81.1719 115.734L85.9063 118.109C86.5313 118.422 87.2813 118.172 87.5781 117.547C87.6719 117.375 87.7031 117.187 87.7031 116.984V109.484C87.7031 106.031 84.9063 103.234 81.4531 103.234H71.4531C68 103.234 65.2031 106.031 65.2031 109.484C65.2031 112.937 68 115.734 71.4531 115.734H81.1719ZM67.7031 109.484C67.7031 107.422 69.3906 105.734 71.4531 105.734H81.4531C83.5156 105.734 85.2031 107.422 85.2031 109.484V114.969L82.0156 113.375C81.8438 113.281 81.6563 113.25 81.4531 113.25H71.4531C69.3906 113.219 67.7188 111.547 67.7031 109.484Z" fill="#752A9F"/>
</svg>
